%!PS-Adobe-2.0 EPSF-1.2
%%BoundingBox: 0 0 432 432
/bb [0 0 432 432] def
/window {/wy1 exch def  /wx1 exch def  /wy0 exch def  /wx0 exch def} def
/viewport {
	/vy1 exch bb 3 get bb 1 get sub mul bb 1 get add def	/vx1 exch bb 2 get bb 0 get sub mul bb 0 get add def
	/vy0 exch bb 3 get bb 1 get sub mul bb 1 get add def	/vx0 exch bb 2 get bb 0 get sub mul bb 0 get add def
}def
0 0 1 1 viewport			0 0 1 1 window
/wvmap {wy0 sub vy1 vy0 sub wy1 wy0 sub div mul vy0 add exch  wx0 sub vx1 vx0 sub wx1 wx0 sub div mul vx0 add exch} def
/mv {wvmap moveto} def			/ln {wvmap lineto} def
/h2c  {dup dup 0 get exch 2 get div exch dup 1 get exch 2 get div} def
/mvh  {h2c  mv} def		/lnh  {h2c ln} def
/border {newpath wx0 wy0 mv wx1 wy0 ln wx1 wy1 ln wx0 wy1 ln closepath} def
%====================== Functions to draw a Bezier Curve and its control polygon  ====================
/cplot{5 dict begin	%  plot a rational Bezier curve with homogeneous control points.
		/cp exch def
		cp 0 get  mvh   % move to first point on curve
		0 .01 1{  cp exch poft  lnh	}for stroke
end}  bind def
/cpplot{5 dict begin % Draw the control polygon of a Bezier curve
		/p exch def		p 0 get mvh			1 1 p length 1 sub{p exch get lnh }for
end}def
/poft{10 dict begin   %  evaluate a rational Bezier curve.  Syntax:     curve   t  poft  =>  point
		/t exch def		/p exch def
		/deg  p length 1 sub  def		/u 1 t sub def		/bc 1 def		/tn 1 def
		/tmp p 0 get u scaleh def
		1  1  deg 1 sub { /i exch def
			/tn tn t mul def
			/bc bc deg i sub 1 add mul i div def
			/tmp  p i get tn bc mul scaleh tmp addh u scaleh def
		} for
		p deg get tn t mul scaleh tmp addh
end}  bind def
/addh{5 dict begin   % add two vectors
	/a exch def		/b exch def 	[a 0 get b 0 get add  a 1 get b 1 get add   a 2 get b 2 get add]  end
} bind def
/scaleh{5 dict begin   % scale a vector :   vec scalar  scaleh
		/b exch def		/a exch def  [a 0 get b mul   a 1 get b mul  a 2 get b mul]	end
} bind def
/circ{5 dict begin /r exch def  /y exch def  /x exch def x r add y mv 3 3 360{dup cos r mul x add exch sin r mul y add ln}for stroke} bind def
%=========================================================================

0.01 0.51 0.49 0.99 viewport
0.0 0.0 150.0 150.0 window
0.0 0.0 0.0 setrgbcolor
[[40.0 45.0 1.0][50.0 90.0 1.0][95.0 90.0 1.0][95.0 45.0 1.0]] cplot
1.0 0.0 0.0 setrgbcolor
40.0 45.0 mv 50.0 90.0 ln 95.0 90.0 ln 95.0 45.0 ln stroke
1.0 20.0 mv /Times-Roman findfont 12.0 scalefont setfont (Original curve) show
0.51 0.51 0.99 0.99 viewport
0.0 0.0 150.0 150.0 window
0.0 0.0 0.0 setrgbcolor
[[40.0 45.0 1.0][44.0 63.0 1.0][53.6 73.8 1.0][63.68 77.39999999999999 1.0]] cplot
[[63.68 77.39999999999999 1.0][78.8 82.8 1.0][95.0 72.0 1.0][95.0 45.0 1.0]] cplot
1.0 0.0 0.0 setrgbcolor
40.0 45.0 mv 44.0 63.0 ln 53.6 73.8 ln 63.68 77.39999999999999 ln stroke
63.68 77.39999999999999 mv 78.8 82.8 ln 95.0 72.0 ln 95.0 45.0 ln stroke
1.0 20.0 mv /Times-Roman findfont 12.0 scalefont setfont (Subdivide into two curves, t=0.4) show
0.01 0.01 0.49 0.49 viewport
0.0 0.0 150.0 150.0 window
0.0 0.0 0.0 setrgbcolor
[[40.0 45.0 1.0][41.6 52.2 1.0][44.096000000000004 58.248 1.0][47.16032 63.144 1.0]] cplot
[[47.16032 63.144 1.0][51.7568 70.488 1.0][57.632 75.24 1.0][63.68 77.39999999999999 1.0]] cplot
[[63.68 77.39999999999999 1.0][69.728 79.55999999999999 1.0][75.94879999999999 79.128 1.0][81.23648 76.104 1.0]] cplot
[[81.23648 76.104 1.0][89.168 71.568 1.0][95.0 61.2 1.0][95.0 45.0 1.0]] cplot
1.0 0.0 0.0 setrgbcolor
40.0 45.0 mv 41.6 52.2 ln 44.096000000000004 58.248 ln 47.16032 63.144 ln stroke
47.16032 63.144 mv 51.7568 70.488 ln 57.632 75.24 ln 63.68 77.39999999999999 ln stroke
63.68 77.39999999999999 mv 69.728 79.55999999999999 ln 75.94879999999999 79.128 ln 81.23648 76.104 ln stroke
81.23648 76.104 mv 89.168 71.568 ln 95.0 61.2 ln 95.0 45.0 ln stroke
1.0 20.0 mv /Times-Roman findfont 12.0 scalefont setfont (Subdivide into four curves, t=0.4) show
0.51 0.01 0.99 0.49 viewport
0.0 0.0 150.0 150.0 window
0.0 0.0 0.0 setrgbcolor
[[40.0 45.0 1.0][40.64 47.88 1.0][41.42336 50.57568 1.0][42.32910848 53.087039999999995 1.0]] cplot
[[42.32910848 53.087039999999995 1.0][43.6877312 56.854079999999996 1.0][45.321728 60.206399999999995 1.0][47.16032 63.144 1.0]] cplot
[[47.16032 63.144 1.0][48.998912 66.0816 1.0][51.042099199999996 68.60448 1.0][53.219102719999995 70.71264 1.0]] cplot
[[53.219102719999995 70.71264 1.0][56.484608 73.87488 1.0][60.0512 76.104 1.0][63.68 77.39999999999999 1.0]] cplot
[[63.68 77.39999999999999 1.0][66.0992 78.264 1.0][68.546048 78.71328 1.0][70.94976512 78.74784 1.0]] cplot
[[70.94976512 78.74784 1.0][74.5553408 78.79968 1.0][78.06387199999999 77.9184 1.0][81.23648 76.104 1.0]] cplot
[[81.23648 76.104 1.0][84.409088 74.2896 1.0][87.2457728 71.54208 1.0][89.50765568 67.86144 1.0]] cplot
[[89.50765568 67.86144 1.0][92.90048 62.34048 1.0][95.0 54.72 1.0][95.0 45.0 1.0]] cplot
1.0 0.0 0.0 setrgbcolor
40.0 45.0 mv 40.64 47.88 ln 41.42336 50.57568 ln 42.32910848 53.087039999999995 ln stroke
42.32910848 53.087039999999995 mv 43.6877312 56.854079999999996 ln 45.321728 60.206399999999995 ln 47.16032 63.144 ln stroke
47.16032 63.144 mv 48.998912 66.0816 ln 51.042099199999996 68.60448 ln 53.219102719999995 70.71264 ln stroke
53.219102719999995 70.71264 mv 56.484608 73.87488 ln 60.0512 76.104 ln 63.68 77.39999999999999 ln stroke
63.68 77.39999999999999 mv 66.0992 78.264 ln 68.546048 78.71328 ln 70.94976512 78.74784 ln stroke
70.94976512 78.74784 mv 74.5553408 78.79968 ln 78.06387199999999 77.9184 ln 81.23648 76.104 ln stroke
81.23648 76.104 mv 84.409088 74.2896 ln 87.2457728 71.54208 ln 89.50765568 67.86144 ln stroke
89.50765568 67.86144 mv 92.90048 62.34048 ln 95.0 54.72 ln 95.0 45.0 ln stroke
1.0 20.0 mv /Times-Roman findfont 12.0 scalefont setfont (Subdivide into eight curves, t=0.4) show
0.0 0.0 0.0 setrgbcolor
1.0 1.0 mv /Times-Roman findfont 12.0 scalefont setfont (Steven Schmidt; CS557; Sep 12, 2016) show
