%!PS-Adobe-2.0 EPSF-1.2
%%BoundingBox: 0 0 432 432
/bb [0 0 432 432] def
/window {/wy1 exch def  /wx1 exch def  /wy0 exch def  /wx0 exch def} def
/viewport {
	/vy1 exch bb 3 get bb 1 get sub mul bb 1 get add def	/vx1 exch bb 2 get bb 0 get sub mul bb 0 get add def
	/vy0 exch bb 3 get bb 1 get sub mul bb 1 get add def	/vx0 exch bb 2 get bb 0 get sub mul bb 0 get add def
}def
0 0 1 1 viewport			0 0 1 1 window
/wvmap {wy0 sub vy1 vy0 sub wy1 wy0 sub div mul vy0 add exch  wx0 sub vx1 vx0 sub wx1 wx0 sub div mul vx0 add exch} def
/mv {wvmap moveto} def			/ln {wvmap lineto} def
/h2c  {dup dup 0 get exch 2 get div exch dup 1 get exch 2 get div} def
/mvh  {h2c  mv} def		/lnh  {h2c ln} def
/border {newpath wx0 wy0 mv wx1 wy0 ln wx1 wy1 ln wx0 wy1 ln closepath} def
%====================== Functions to draw a Bezier Curve and its control polygon  ====================
/cplot{5 dict begin	%  plot a rational Bezier curve with homogeneous control points.
		/cp exch def
		cp 0 get  mvh   % move to first point on curve
		0 .01 1{  cp exch poft  lnh	}for stroke
end}  bind def
/cpplot{5 dict begin % Draw the control polygon of a Bezier curve
		/p exch def		p 0 get mvh			1 1 p length 1 sub{p exch get lnh }for
end}def
/poft{10 dict begin   %  evaluate a rational Bezier curve.  Syntax:     curve   t  poft  =>  point
		/t exch def		/p exch def
		/deg  p length 1 sub  def		/u 1 t sub def		/bc 1 def		/tn 1 def
		/tmp p 0 get u scaleh def
		1  1  deg 1 sub { /i exch def
			/tn tn t mul def
			/bc bc deg i sub 1 add mul i div def
			/tmp  p i get tn bc mul scaleh tmp addh u scaleh def
		} for
		p deg get tn t mul scaleh tmp addh
end}  bind def
/addh{5 dict begin   % add two vectors
	/a exch def		/b exch def 	[a 0 get b 0 get add  a 1 get b 1 get add   a 2 get b 2 get add]  end
} bind def
/scaleh{5 dict begin   % scale a vector :   vec scalar  scaleh
		/b exch def		/a exch def  [a 0 get b mul   a 1 get b mul  a 2 get b mul]	end
} bind def
/circ{5 dict begin /r exch def  /y exch def  /x exch def x r add y mv 3 3 360{dup cos r mul x add exch sin r mul y add ln}for stroke} bind def
%=========================================================================

-0.5 -0.5 6.5 6.5 window
0.0 0.0 1.0 1.0 viewport
1.0 0.0 mv 0.0 3.0 ln 3.0 6.0 ln 6.0 3.0 ln 5.0 0.0 ln stroke
0.0 0.0 0.5 setrgbcolor
1.0 0.0 mv 0.5 1.5 ln 1.2 4.2 ln 3.0 5.3076923076923075 ln 4.8 4.2 ln 5.5 1.5 ln 5.0 0.0 ln stroke
0.5 0.0 0.0 setrgbcolor
1.0 0.0 mv 0.75 0.75 ln 0.7058823529411765 2.2941176470588234 ln 1.3875 3.975 ln 2.217391304347826 4.826086956521739 ln 3.0 5.081632653061225 ln 3.782608695652174 4.826086956521739 ln 4.6125 3.975 ln 5.294117647058823 2.2941176470588234 ln 5.25 0.75 ln 5.0 0.0 ln stroke
0.0 0.5 0.0 setrgbcolor
[[1.0 0.0 1.0][0.75 0.75 1.0][0.75 1.59375 1.03125][0.9140625 2.4375 1.078125]] cplot
0.0 0.0 0.5 setrgbcolor
[[0.9140625 2.4375 1.078125][1.078125 3.28125 1.125][1.40625 4.125 1.1875][1.8125 4.875 1.25]] cplot
0.5 0.0 0.0 setrgbcolor
[[1.8125 4.875 1.25][2.21875 5.625 1.3125][2.703125 6.28125 1.375][3.1796875 6.75 1.421875]] cplot
0.0 0.0 0.0 setrgbcolor
[[3.1796875 6.75 1.421875][3.6562500000000004 7.218750000000001 1.46875][4.125 7.5 1.5][4.5 7.5 1.5]] cplot
0.0 0.5 0.0 setrgbcolor
[[4.5 7.5 1.5][4.875 7.500000000000001 1.5][5.15625 7.21875 1.46875][5.3515625 6.75 1.421875]] cplot
0.0 0.0 0.5 setrgbcolor
[[5.3515625 6.75 1.421875][5.546875 6.281250000000001 1.375][5.65625 5.625 1.3125][5.6875 4.875 1.25]] cplot
0.5 0.0 0.0 setrgbcolor
[[5.6875 4.875 1.25][5.71875 4.125 1.1875][5.671875 3.28125 1.125][5.5546875 2.4375 1.078125]] cplot
0.0 0.0 0.0 setrgbcolor
[[5.5546875 2.4375 1.078125][5.4375 1.59375 1.03125][5.25 0.75 1.0][5.0 0.0 1.0]] cplot
0.0 0.0 1.0 1.0 viewport
0.0 0.0 1.0 1.0 window
0.0 0.0 0.0 setrgbcolor
0.52 0.02 mv /Times-Roman findfont 9.0 scalefont setfont (Steven Schmidt, Project 3, CS557, Oct. 12, 2016) show
