%!PS-Adobe-2.0 EPSF-1.2
%%BoundingBox: 0 0 432 432
/bb [0 0 432 432] def
/window {/wy1 exch def  /wx1 exch def  /wy0 exch def  /wx0 exch def} def
/viewport {
	/vy1 exch bb 3 get bb 1 get sub mul bb 1 get add def	/vx1 exch bb 2 get bb 0 get sub mul bb 0 get add def
	/vy0 exch bb 3 get bb 1 get sub mul bb 1 get add def	/vx0 exch bb 2 get bb 0 get sub mul bb 0 get add def
}def
0 0 1 1 viewport			0 0 1 1 window
/wvmap {wy0 sub vy1 vy0 sub wy1 wy0 sub div mul vy0 add exch  wx0 sub vx1 vx0 sub wx1 wx0 sub div mul vx0 add exch} def
/mv {wvmap moveto} def			/ln {wvmap lineto} def
/h2c  {dup dup 0 get exch 2 get div exch dup 1 get exch 2 get div} def
/mvh  {h2c  mv} def		/lnh  {h2c ln} def
/border {newpath wx0 wy0 mv wx1 wy0 ln wx1 wy1 ln wx0 wy1 ln closepath} def
%====================== Functions to draw a Bezier Curve and its control polygon  ====================
/cplot{5 dict begin	%  plot a rational Bezier curve with homogeneous control points.
		/cp exch def
		cp 0 get  mvh   % move to first point on curve
		0 .01 1{  cp exch poft  lnh	}for stroke
end}  bind def
/cpplot{5 dict begin % Draw the control polygon of a Bezier curve
		/p exch def		p 0 get mvh			1 1 p length 1 sub{p exch get lnh }for
end}def
/poft{10 dict begin   %  evaluate a rational Bezier curve.  Syntax:     curve   t  poft  =>  point
		/t exch def		/p exch def
		/deg  p length 1 sub  def		/u 1 t sub def		/bc 1 def		/tn 1 def
		/tmp p 0 get u scaleh def
		1  1  deg 1 sub { /i exch def
			/tn tn t mul def
			/bc bc deg i sub 1 add mul i div def
			/tmp  p i get tn bc mul scaleh tmp addh u scaleh def
		} for
		p deg get tn t mul scaleh tmp addh
end}  bind def
/addh{5 dict begin   % add two vectors
	/a exch def		/b exch def 	[a 0 get b 0 get add  a 1 get b 1 get add   a 2 get b 2 get add]  end
} bind def
/scaleh{5 dict begin   % scale a vector :   vec scalar  scaleh
		/b exch def		/a exch def  [a 0 get b mul   a 1 get b mul  a 2 get b mul]	end
} bind def
/circ{5 dict begin /r exch def  /y exch def  /x exch def x r add y mv 3 3 360{dup cos r mul x add exch sin r mul y add ln}for stroke} bind def
%=========================================================================

0.01 0.51 0.49 0.99 viewport
0.0 0.0 150.0 150.0 window
0.0 0.0 0.0 setrgbcolor
[[40.0 45.0 1.0][50.0 90.0 1.0][95.0 90.0 1.0][95.0 45.0 1.0]] cplot
1.0 0.0 0.0 setrgbcolor
40.0 45.0 mv 50.0 90.0 ln 95.0 90.0 ln 95.0 45.0 ln stroke
1.0 20.0 mv /Times-Roman findfont 12.0 scalefont setfont (Original curve, degree=3) show
0.51 0.51 0.99 0.99 viewport
0.0 0.0 150.0 150.0 window
0.0 0.0 0.0 setrgbcolor
[[40.0 45.0 1.0][47.5 78.75 1.0][72.5 90.0 1.0][95.0 78.75 1.0][95.0 45.0 1.0]] cplot
1.0 0.0 0.0 setrgbcolor
40.0 45.0 mv 47.5 78.75 ln 72.5 90.0 ln 95.0 78.75 ln 95.0 45.0 ln stroke
1.0 20.0 mv /Times-Roman findfont 12.0 scalefont setfont (Degree elevated, degree=4) show
0.01 0.01 0.49 0.49 viewport
0.0 0.0 150.0 150.0 window
0.0 0.0 0.0 setrgbcolor
[[40.0 45.0 1.0][46.0 72.0 1.0][62.5 85.5 1.0][81.5 85.5 1.0][95.0 72.0 1.0][95.0 45.0 1.0]] cplot
1.0 0.0 0.0 setrgbcolor
40.0 45.0 mv 46.0 72.0 ln 62.5 85.5 ln 81.5 85.5 ln 95.0 72.0 ln 95.0 45.0 ln stroke
1.0 20.0 mv /Times-Roman findfont 12.0 scalefont setfont (Degree elevated, degree=5) show
0.51 0.01 0.99 0.49 viewport
0.0 0.0 150.0 150.0 window
0.0 0.0 0.0 setrgbcolor
[[40.0 45.0 1.0][41.499999999999986 51.75 1.0][43.55263157894737 57.78947368421051 1.0][46.08771929824562 63.11842105263157 1.0][49.03508771929825 67.73684210526315 1.0][52.324561403508774 71.64473684210526 1.0][55.8859649122807 74.84210526315789 1.0][59.64912280701754 77.32894736842105 1.0][63.54385964912281 79.10526315789474 1.0][67.5 80.17105263157895 1.0][71.44736842105263 80.52631578947368 1.0][75.3157894736842 80.17105263157895 1.0][79.03508771929823 79.10526315789474 1.0][82.53508771929825 77.32894736842105 1.0][85.74561403508771 74.84210526315789 1.0][88.59649122807016 71.64473684210526 1.0][91.01754385964914 67.73684210526315 1.0][92.93859649122808 63.11842105263157 1.0][94.28947368421052 57.78947368421052 1.0][95.0 51.75 1.0][95.0 45.0 1.0]] cplot
1.0 0.0 0.0 setrgbcolor
40.0 45.0 mv 41.499999999999986 51.75 ln 43.55263157894737 57.78947368421051 ln 46.08771929824562 63.11842105263157 ln 49.03508771929825 67.73684210526315 ln 52.324561403508774 71.64473684210526 ln 55.8859649122807 74.84210526315789 ln 59.64912280701754 77.32894736842105 ln 63.54385964912281 79.10526315789474 ln 67.5 80.17105263157895 ln 71.44736842105263 80.52631578947368 ln 75.3157894736842 80.17105263157895 ln 79.03508771929823 79.10526315789474 ln 82.53508771929825 77.32894736842105 ln 85.74561403508771 74.84210526315789 ln 88.59649122807016 71.64473684210526 ln 91.01754385964914 67.73684210526315 ln 92.93859649122808 63.11842105263157 ln 94.28947368421052 57.78947368421052 ln 95.0 51.75 ln 95.0 45.0 ln stroke
1.0 20.0 mv /Times-Roman findfont 12.0 scalefont setfont (Degree elevated, degree=20) show
0.0 0.0 0.0 setrgbcolor
1.0 1.0 mv /Times-Roman findfont 12.0 scalefont setfont (Steven Schmidt; CS557; Sep 12, 2016) show
