%!PS-Adobe-2.0 EPSF-1.2
%%BoundingBox: 0 0 432 432
/bb [0 0 432 432] def
/window {/wy1 exch def  /wx1 exch def  /wy0 exch def  /wx0 exch def} def
/viewport {
	/vy1 exch bb 3 get bb 1 get sub mul bb 1 get add def	/vx1 exch bb 2 get bb 0 get sub mul bb 0 get add def
	/vy0 exch bb 3 get bb 1 get sub mul bb 1 get add def	/vx0 exch bb 2 get bb 0 get sub mul bb 0 get add def
}def
0 0 1 1 viewport			0 0 1 1 window
/wvmap {wy0 sub vy1 vy0 sub wy1 wy0 sub div mul vy0 add exch  wx0 sub vx1 vx0 sub wx1 wx0 sub div mul vx0 add exch} def
/mv {wvmap moveto} def			/ln {wvmap lineto} def
/h2c  {dup dup 0 get exch 2 get div exch dup 1 get exch 2 get div} def
/mvh  {h2c  mv} def		/lnh  {h2c ln} def
/border {newpath wx0 wy0 mv wx1 wy0 ln wx1 wy1 ln wx0 wy1 ln closepath} def
%====================== Functions to draw a Bezier Curve and its control polygon  ====================
/cplot{5 dict begin	%  plot a rational Bezier curve with homogeneous control points.
		/cp exch def
		cp 0 get  mvh   % move to first point on curve
		0 .01 1{  cp exch poft  lnh	}for stroke
end}  bind def
/cpplot{5 dict begin % Draw the control polygon of a Bezier curve
		/p exch def		p 0 get mvh			1 1 p length 1 sub{p exch get lnh }for
end}def
/poft{10 dict begin   %  evaluate a rational Bezier curve.  Syntax:     curve   t  poft  =>  point
		/t exch def		/p exch def
		/deg  p length 1 sub  def		/u 1 t sub def		/bc 1 def		/tn 1 def
		/tmp p 0 get u scaleh def
		1  1  deg 1 sub { /i exch def
			/tn tn t mul def
			/bc bc deg i sub 1 add mul i div def
			/tmp  p i get tn bc mul scaleh tmp addh u scaleh def
		} for
		p deg get tn t mul scaleh tmp addh
end}  bind def
/addh{5 dict begin   % add two vectors
	/a exch def		/b exch def 	[a 0 get b 0 get add  a 1 get b 1 get add   a 2 get b 2 get add]  end
} bind def
/scaleh{5 dict begin   % scale a vector :   vec scalar  scaleh
		/b exch def		/a exch def  [a 0 get b mul   a 1 get b mul  a 2 get b mul]	end
} bind def
/circ{5 dict begin /r exch def  /y exch def  /x exch def x r add y mv 3 3 360{dup cos r mul x add exch sin r mul y add ln}for stroke} bind def
%=========================================================================

-2.0 -2.0 12.0 12.0 window
0.0 0.5 0.5 1.0 viewport
[[0.0 10.0 1.0][0.0 0.0 1.0][5.0 0.0 1.0][10.0 0.0 1.0][10.0 10.0 1.0]] cplot
1.0 0.0 0.0 setrgbcolor
[[1.0 10.0 1.0][1.0113524738575355 9.254905221125956 1.0]] cplot
[[1.0113524738575355 9.254905221125956 1.0][1.0446071323290034 8.55846251006989 1.0]] cplot
[[1.0446071323290034 8.55846251006989 1.0][1.0985300323376537 7.9089770470458465 1.0]] cplot
[[1.0985300323376537 7.9089770470458465 1.0][1.1718458299349745 7.304802894106244 1.0]] cplot
[[1.1718458299349745 7.304802894106244 1.0][1.2632371940642217 6.744331073075095 1.0]] cplot
[[1.2632371940642217 6.744331073075095 1.0][1.3713467769598535 6.225975629806576 1.0]] cplot
[[1.3713467769598535 6.225975629806576 1.0][1.494782721408071 5.748158154471568 1.0]] cplot
[[1.494782721408071 5.748158154471568 1.0][1.6321286882201367 5.309291704500754 1.0]] cplot
[[1.6321286882201367 5.309291704500754 1.0][1.7819591885508606 4.907765653765031 1.0]] cplot
[[1.7819591885508606 4.907765653765031 1.0][1.9428605188239303 4.541933580392348 1.0]] cplot
[[1.9428605188239303 4.541933580392348 1.0][2.1134567707361622 4.210106746637857 1.0]] cplot
[[2.1134567707361622 4.210106746637857 1.0][2.2924392633394755 3.91055579773841 1.0]] cplot
[[2.2924392633394755 3.91055579773841 1.0][2.4785964959768227 3.641522786931729 1.0]] cplot
[[2.4785964959768227 3.641522786931729 1.0][2.6708406808211387 3.4012443894479643 1.0]] cplot
[[2.6708406808211387 3.4012443894479643 1.0][2.8682265047805178 3.1879852816641234 1.0]] cplot
[[2.8682265047805178 3.1879852816641234 1.0][3.0699583554586427 3.0000785021674794 1.0]] cplot
[[3.0699583554586427 3.0000785021674794 1.0][3.275383929730853 2.8359677867530184 1.0]] cplot
[[3.275383929730853 2.8359677867530184 1.0][3.4839746351695657 2.694246024447774 1.0]] cplot
[[3.4839746351695657 2.694246024447774 1.0][3.6952958396157074 2.573684515324606 1.0]] cplot
[[3.6952958396157074 2.573684515324606 1.0][3.9089720370403627 2.473249561411386 1.0]] cplot
[[3.9089720370403627 2.473249561411386 1.0][4.12465278811218 2.3921055628386987 1.0]] cplot
[[4.12465278811218 2.3921055628386987 1.0][4.341984704776445 2.329606454128782 1.0]] cplot
[[4.341984704776445 2.329606454128782 1.0][4.560593075374617 2.2852793114386287 1.0]] cplot
[[4.560593075374617 2.2852793114386287 1.0][4.780074531005707 2.258804919367567 1.0]] cplot
[[4.780074531005707 2.258804919367567 1.0][5.0 2.25 1.0]] cplot
[[5.0 2.25 1.0][5.219925468994292 2.258804919367567 1.0]] cplot
[[5.219925468994292 2.258804919367567 1.0][5.439406924625384 2.2852793114386287 1.0]] cplot
[[5.439406924625384 2.2852793114386287 1.0][5.658015295223556 2.329606454128782 1.0]] cplot
[[5.658015295223556 2.329606454128782 1.0][5.87534721188782 2.3921055628386982 1.0]] cplot
[[5.87534721188782 2.3921055628386982 1.0][6.091027962959638 2.473249561411386 1.0]] cplot
[[6.091027962959638 2.473249561411386 1.0][6.3047041603842935 2.573684515324606 1.0]] cplot
[[6.3047041603842935 2.573684515324606 1.0][6.516025364830433 2.694246024447774 1.0]] cplot
[[6.516025364830433 2.694246024447774 1.0][6.724616070269149 2.8359677867530184 1.0]] cplot
[[6.724616070269149 2.8359677867530184 1.0][6.930041644541357 3.0000785021674794 1.0]] cplot
[[6.930041644541357 3.0000785021674794 1.0][7.131773495219483 3.1879852816641243 1.0]] cplot
[[7.131773495219483 3.1879852816641243 1.0][7.329159319178862 3.4012443894479643 1.0]] cplot
[[7.329159319178862 3.4012443894479643 1.0][7.5214035040231755 3.641522786931729 1.0]] cplot
[[7.5214035040231755 3.641522786931729 1.0][7.707560736660525 3.910555797738411 1.0]] cplot
[[7.707560736660525 3.910555797738411 1.0][7.886543229263839 4.210106746637857 1.0]] cplot
[[7.886543229263839 4.210106746637857 1.0][8.05713948117607 4.541933580392349 1.0]] cplot
[[8.05713948117607 4.541933580392349 1.0][8.218040811449141 4.907765653765034 1.0]] cplot
[[8.218040811449141 4.907765653765034 1.0][8.367871311779863 5.309291704500754 1.0]] cplot
[[8.367871311779863 5.309291704500754 1.0][8.505217278591928 5.748158154471567 1.0]] cplot
[[8.505217278591928 5.748158154471567 1.0][8.628653223040146 6.225975629806576 1.0]] cplot
[[8.628653223040146 6.225975629806576 1.0][8.736762805935777 6.744331073075096 1.0]] cplot
[[8.736762805935777 6.744331073075096 1.0][8.828154170065027 7.304802894106247 1.0]] cplot
[[8.828154170065027 7.304802894106247 1.0][8.901469967662345 7.908977047045848 1.0]] cplot
[[8.901469967662345 7.908977047045848 1.0][8.955392867670998 8.558462510069889 1.0]] cplot
[[8.955392867670998 8.558462510069889 1.0][8.988647526142465 9.254905221125956 1.0]] cplot
[[8.988647526142465 9.254905221125956 1.0][9.0 10.0 1.0]] cplot
[[2.0 10.0 1.0][2.0108649477150706 9.286127242251911 1.0]] cplot
[[2.0108649477150706 9.286127242251911 1.0][2.0424942646580067 8.62343382013978 1.0]] cplot
[[2.0424942646580067 8.62343382013978 1.0][2.0933800646753076 8.010334894091693 1.0]] cplot
[[2.0933800646753076 8.010334894091693 1.0][2.161931659869949 7.445266588212489 1.0]] cplot
[[2.161931659869949 7.445266588212489 1.0][2.2464743881284432 6.926662146150192 1.0]] cplot
[[2.2464743881284432 6.926662146150192 1.0][2.345253553919707 6.452924059613151 1.0]] cplot
[[2.345253553919707 6.452924059613151 1.0][2.4564454428161415 6.0223931089431355 1.0]] cplot
[[2.4564454428161415 6.0223931089431355 1.0][2.5781773764402733 5.633316209001507 1.0]] cplot
[[2.5781773764402733 5.633316209001507 1.0][2.7085583771017214 5.283816107530063 1.0]] cplot
[[2.7085583771017214 5.283816107530063 1.0][2.8457210376478606 4.971867160784695 1.0]] cplot
[[2.8457210376478606 4.971867160784695 1.0][2.987873541472324 4.695282293275713 1.0]] cplot
[[2.987873541472324 4.695282293275713 1.0][3.1333585266789514 4.45171639547682 1.0]] cplot
[[3.1333585266789514 4.45171639547682 1.0][3.280712991953645 4.238690373863458 1.0]] cplot
[[3.280712991953645 4.238690373863458 1.0][3.4287213616422765 4.053637578895929 1.0]] cplot
[[3.4287213616422765 4.053637578895929 1.0][3.5764530095610354 3.893970563328247 1.0]] cplot
[[3.5764530095610354 3.893970563328247 1.0][3.7232767109172853 3.7571618043349586 1.0]] cplot
[[3.7232767109172853 3.7571618043349586 1.0][3.868847859461706 3.6408283735060367 1.0]] cplot
[[3.868847859461706 3.6408283735060367 1.0][4.013069270339132 3.5428088488955485 1.0]] cplot
[[4.013069270339132 3.5428088488955485 1.0][4.156031679231415 3.461221830649212 1.0]] cplot
[[4.156031679231415 3.461221830649212 1.0][4.297944074080726 3.394499122822771 1.0]] cplot
[[4.297944074080726 3.394499122822771 1.0][4.439065576224361 3.341391925677397 1.0]] cplot
[[4.439065576224361 3.341391925677397 1.0][4.57964940955289 3.3009537082575644 1.0]] cplot
[[4.57964940955289 3.3009537082575644 1.0][4.719906150749233 3.2725074228772577 1.0]] cplot
[[4.719906150749233 3.2725074228772577 1.0][4.859989062011414 3.2556066387351343 1.0]] cplot
[[4.859989062011414 3.2556066387351343 1.0][5.0 3.25 1.0]] cplot
[[5.0 3.25 1.0][5.140010937988584 3.2556066387351343 1.0]] cplot
[[5.140010937988584 3.2556066387351343 1.0][5.280093849250768 3.2725074228772577 1.0]] cplot
[[5.280093849250768 3.2725074228772577 1.0][5.420350590447111 3.3009537082575644 1.0]] cplot
[[5.420350590447111 3.3009537082575644 1.0][5.56093442377564 3.3413919256773967 1.0]] cplot
[[5.56093442377564 3.3413919256773967 1.0][5.702055925919275 3.394499122822771 1.0]] cplot
[[5.702055925919275 3.394499122822771 1.0][5.843968320768586 3.4612218306492126 1.0]] cplot
[[5.843968320768586 3.4612218306492126 1.0][5.986930729660868 3.5428088488955485 1.0]] cplot
[[5.986930729660868 3.5428088488955485 1.0][6.131152140538296 3.6408283735060367 1.0]] cplot
[[6.131152140538296 3.6408283735060367 1.0][6.276723289082715 3.7571618043349586 1.0]] cplot
[[6.276723289082715 3.7571618043349586 1.0][6.423546990438965 3.893970563328247 1.0]] cplot
[[6.423546990438965 3.893970563328247 1.0][6.5712786383577235 4.053637578895929 1.0]] cplot
[[6.5712786383577235 4.053637578895929 1.0][6.719287008046353 4.238690373863458 1.0]] cplot
[[6.719287008046353 4.238690373863458 1.0][6.8666414733210495 4.451716395476821 1.0]] cplot
[[6.8666414733210495 4.451716395476821 1.0][7.012126458527677 4.695282293275713 1.0]] cplot
[[7.012126458527677 4.695282293275713 1.0][7.154278962352141 4.971867160784697 1.0]] cplot
[[7.154278962352141 4.971867160784697 1.0][7.291441622898281 5.283816107530066 1.0]] cplot
[[7.291441622898281 5.283816107530066 1.0][7.421822623559727 5.633316209001507 1.0]] cplot
[[7.421822623559727 5.633316209001507 1.0][7.543554557183858 6.022393108943135 1.0]] cplot
[[7.543554557183858 6.022393108943135 1.0][7.654746446080294 6.452924059613151 1.0]] cplot
[[7.654746446080294 6.452924059613151 1.0][7.753525611871556 6.926662146150193 1.0]] cplot
[[7.753525611871556 6.926662146150193 1.0][7.838068340130052 7.445266588212491 1.0]] cplot
[[7.838068340130052 7.445266588212491 1.0][7.9066199353246915 8.010334894091695 1.0]] cplot
[[7.9066199353246915 8.010334894091695 1.0][7.957505735341994 8.62343382013978 1.0]] cplot
[[7.957505735341994 8.62343382013978 1.0][7.989135052284929 9.286127242251911 1.0]] cplot
[[7.989135052284929 9.286127242251911 1.0][8.0 10.0 1.0]] cplot
[[3.0 10.0 1.0][3.010377421572606 9.317349263377867 1.0]] cplot
[[3.010377421572606 9.317349263377867 1.0][3.0403813969870104 8.688405130209672 1.0]] cplot
[[3.0403813969870104 8.688405130209672 1.0][3.0882300970129606 8.111692741137539 1.0]] cplot
[[3.0882300970129606 8.111692741137539 1.0][3.1520174898049236 7.585730282318734 1.0]] cplot
[[3.1520174898049236 7.585730282318734 1.0][3.2297115821926656 7.108993219225288 1.0]] cplot
[[3.2297115821926656 7.108993219225288 1.0][3.3191603308795607 6.6798724894197266 1.0]] cplot
[[3.3191603308795607 6.6798724894197266 1.0][3.418108164224213 6.296628063414704 1.0]] cplot
[[3.418108164224213 6.296628063414704 1.0][3.52422606466041 5.957340713502261 1.0]] cplot
[[3.52422606466041 5.957340713502261 1.0][3.635157565652582 5.659866561295095 1.0]] cplot
[[3.635157565652582 5.659866561295095 1.0][3.748581556471791 5.401800741177043 1.0]] cplot
[[3.748581556471791 5.401800741177043 1.0][3.8622903122084855 5.180457839913569 1.0]] cplot
[[3.8622903122084855 5.180457839913569 1.0][3.974277790018427 4.99287699321523 1.0]] cplot
[[3.974277790018427 4.99287699321523 1.0][4.082829487930468 4.835857960795187 1.0]] cplot
[[4.082829487930468 4.835857960795187 1.0][4.186602042463415 4.7060307683438936 1.0]] cplot
[[4.186602042463415 4.7060307683438936 1.0][4.284679514341553 4.599955844992371 1.0]] cplot
[[4.284679514341553 4.599955844992371 1.0][4.376595066375927 4.514245106502438 1.0]] cplot
[[4.376595066375927 4.514245106502438 1.0][4.462311789192558 4.445688960259055 1.0]] cplot
[[4.462311789192558 4.445688960259055 1.0][4.542163905508698 4.391371673343323 1.0]] cplot
[[4.542163905508698 4.391371673343323 1.0][4.616767518847122 4.348759145973818 1.0]] cplot
[[4.616767518847122 4.348759145973818 1.0][4.686916111121088 4.3157486842341575 1.0]] cplot
[[4.686916111121088 4.3157486842341575 1.0][4.753478364336541 4.290678288516096 1.0]] cplot
[[4.753478364336541 4.290678288516096 1.0][4.817314114329335 4.272300962386347 1.0]] cplot
[[4.817314114329335 4.272300962386347 1.0][4.879219226123848 4.259735534315887 1.0]] cplot
[[4.879219226123848 4.259735534315887 1.0][4.939903593017123 4.252408358102701 1.0]] cplot
[[4.939903593017123 4.252408358102701 1.0][5.0 4.25 1.0]] cplot
[[5.0 4.25 1.0][5.060096406982876 4.252408358102701 1.0]] cplot
[[5.060096406982876 4.252408358102701 1.0][5.1207807738761515 4.259735534315887 1.0]] cplot
[[5.1207807738761515 4.259735534315887 1.0][5.182685885670665 4.272300962386346 1.0]] cplot
[[5.182685885670665 4.272300962386346 1.0][5.246521635663459 4.290678288516096 1.0]] cplot
[[5.246521635663459 4.290678288516096 1.0][5.3130838888789125 4.3157486842341575 1.0]] cplot
[[5.3130838888789125 4.3157486842341575 1.0][5.383232481152879 4.348759145973819 1.0]] cplot
[[5.383232481152879 4.348759145973819 1.0][5.457836094491302 4.391371673343323 1.0]] cplot
[[5.457836094491302 4.391371673343323 1.0][5.537688210807444 4.445688960259055 1.0]] cplot
[[5.537688210807444 4.445688960259055 1.0][5.623404933624071 4.514245106502438 1.0]] cplot
[[5.623404933624071 4.514245106502438 1.0][5.715320485658447 4.59995584499237 1.0]] cplot
[[5.715320485658447 4.59995584499237 1.0][5.813397957536586 4.7060307683438936 1.0]] cplot
[[5.813397957536586 4.7060307683438936 1.0][5.91717051206953 4.835857960795186 1.0]] cplot
[[5.91717051206953 4.835857960795186 1.0][6.025722209981574 4.992876993215232 1.0]] cplot
[[6.025722209981574 4.992876993215232 1.0][6.137709687791515 5.180457839913569 1.0]] cplot
[[6.137709687791515 5.180457839913569 1.0][6.25141844352821 5.401800741177045 1.0]] cplot
[[6.25141844352821 5.401800741177045 1.0][6.36484243434742 5.659866561295097 1.0]] cplot
[[6.36484243434742 5.659866561295097 1.0][6.47577393533959 5.957340713502261 1.0]] cplot
[[6.47577393533959 5.957340713502261 1.0][6.581891835775787 6.296628063414703 1.0]] cplot
[[6.581891835775787 6.296628063414703 1.0][6.68083966912044 6.6798724894197266 1.0]] cplot
[[6.68083966912044 6.6798724894197266 1.0][6.7702884178073335 7.1089932192252885 1.0]] cplot
[[6.7702884178073335 7.1089932192252885 1.0][6.847982510195077 7.585730282318736 1.0]] cplot
[[6.847982510195077 7.585730282318736 1.0][6.911769902987038 8.111692741137542 1.0]] cplot
[[6.911769902987038 8.111692741137542 1.0][6.9596186030129905 8.68840513020967 1.0]] cplot
[[6.9596186030129905 8.68840513020967 1.0][6.989622578427395 9.317349263377867 1.0]] cplot
[[6.989622578427395 9.317349263377867 1.0][7.0 10.0 1.0]] cplot
[[-1.0 10.0 1.0][-0.9876724738575354 9.192461178874044 1.0]] cplot
[[-0.9876724738575354 9.192461178874044 1.0][-0.9511671323290034 8.428519889930108 1.0]] cplot
[[-0.9511671323290034 8.428519889930108 1.0][-0.8911700323376537 7.706261352954153 1.0]] cplot
[[-0.8911700323376537 7.706261352954153 1.0][-0.8083258299349745 7.023875505893754 1.0]] cplot
[[-0.8083258299349745 7.023875505893754 1.0][-0.7032371940642217 6.379668926924904 1.0]] cplot
[[-0.7032371940642217 6.379668926924904 1.0][-0.5764667769598535 5.772078770193425 1.0]] cplot
[[-0.5764667769598535 5.772078770193425 1.0][-0.4285427214080708 5.1996882455284315 1.0]] cplot
[[-0.4285427214080708 5.1996882455284315 1.0][-0.25996868822013663 4.661242695499246 1.0]] cplot
[[-0.25996868822013663 4.661242695499246 1.0][-0.07123918855086075 4.155664746234967 1.0]] cplot
[[-0.07123918855086075 4.155664746234967 1.0][0.13713948117606978 3.6820664196076525 1.0]] cplot
[[0.13713948117606978 3.6820664196076525 1.0][0.3646232292638383 3.239755653362144 1.0]] cplot
[[0.3646232292638383 3.239755653362144 1.0][0.6106007366605242 2.828234602261589 1.0]] cplot
[[0.6106007366605242 2.828234602261589 1.0][0.8743635040231778 2.4471876130682704 1.0]] cplot
[[0.8743635040231778 2.4471876130682704 1.0][1.1550793191788622 2.0964580105520345 1.0]] cplot
[[1.1550793191788622 2.0964580105520345 1.0][1.4517734952194825 1.7760147183358768 1.0]] cplot
[[1.4517734952194825 1.7760147183358768 1.0][1.7633216445413575 1.4859118978325203 1.0]] cplot
[[1.7633216445413575 1.4859118978325203 1.0][2.088456070269147 1.2262466132469811 1.0]] cplot
[[2.088456070269147 1.2262466132469811 1.0][2.4257853648304337 0.9971203755522259 1.0]] cplot
[[2.4257853648304337 0.9971203755522259 1.0][2.773824160384293 0.7986098846753938 1.0]] cplot
[[2.773824160384293 0.7986098846753938 1.0][3.1310279629596374 0.630750438588614 1.0]] cplot
[[3.1310279629596374 0.630750438588614 1.0][3.49582721188782 0.49353283716130136 1.0]] cplot
[[3.49582721188782 0.49353283716130136 1.0][3.8666552952235556 0.38691194587121747 1.0]] cplot
[[3.8666552952235556 0.38691194587121747 1.0][4.241966924625385 0.310823088561371 1.0]] cplot
[[4.241966924625385 0.310823088561371 1.0][4.620245468994292 0.2652014806324331 1.0]] cplot
[[4.620245468994292 0.2652014806324331 1.0][5.0 0.25 1.0]] cplot
[[5.0 0.25 1.0][5.379754531005707 0.2652014806324331 1.0]] cplot
[[5.379754531005707 0.2652014806324331 1.0][5.758033075374616 0.3108230885613714 1.0]] cplot
[[5.758033075374616 0.3108230885613714 1.0][6.133344704776445 0.3869119458712178 1.0]] cplot
[[6.133344704776445 0.3869119458712178 1.0][6.50417278811218 0.49353283716130114 1.0]] cplot
[[6.50417278811218 0.49353283716130114 1.0][6.868972037040363 0.630750438588614 1.0]] cplot
[[6.868972037040363 0.630750438588614 1.0][7.226175839615708 0.7986098846753941 1.0]] cplot
[[7.226175839615708 0.7986098846753941 1.0][7.574214635169566 0.9971203755522259 1.0]] cplot
[[7.574214635169566 0.9971203755522259 1.0][7.911543929730855 1.2262466132469818 1.0]] cplot
[[7.911543929730855 1.2262466132469818 1.0][8.236678355458643 1.485911897832521 1.0]] cplot
[[8.236678355458643 1.485911897832521 1.0][8.54822650478052 1.776014718335878 1.0]] cplot
[[8.54822650478052 1.776014718335878 1.0][8.844920680821138 2.0964580105520345 1.0]] cplot
[[8.844920680821138 2.0964580105520345 1.0][9.12563649597682 2.4471876130682713 1.0]] cplot
[[9.12563649597682 2.4471876130682713 1.0][9.389399263339477 2.82823460226159 1.0]] cplot
[[9.389399263339477 2.82823460226159 1.0][9.635376770736162 3.2397556533621454 1.0]] cplot
[[9.635376770736162 3.2397556533621454 1.0][9.862860518823931 3.6820664196076534 1.0]] cplot
[[9.862860518823931 3.6820664196076534 1.0][10.071239188550864 4.15566474623497 1.0]] cplot
[[10.071239188550864 4.15566474623497 1.0][10.259968688220136 4.661242695499246 1.0]] cplot
[[10.259968688220136 4.661242695499246 1.0][10.428542721408071 5.199688245528432 1.0]] cplot
[[10.428542721408071 5.199688245528432 1.0][10.576466776959855 5.772078770193425 1.0]] cplot
[[10.576466776959855 5.772078770193425 1.0][10.70323719406422 6.3796689269249045 1.0]] cplot
[[10.70323719406422 6.3796689269249045 1.0][10.808325829934976 7.023875505893757 1.0]] cplot
[[10.808325829934976 7.023875505893757 1.0][10.891170032337653 7.706261352954156 1.0]] cplot
[[10.891170032337653 7.706261352954156 1.0][10.951167132329005 8.428519889930106 1.0]] cplot
[[10.951167132329005 8.428519889930106 1.0][10.987672473857536 9.192461178874044 1.0]] cplot
[[10.987672473857536 9.192461178874044 1.0][11.0 10.0 1.0]] cplot
0.0 0.0 2.0 2.0 window
0.5 0.5 1.0 1.0 viewport
0.0 0.0 0.0 setrgbcolor
[[1.0 0.0 1.0][1.0 1.0 1.0][0.0 2.0 2.0]] cplot
0.0 1.0 0.0 setrgbcolor
[[0.75 0.0 1.0][0.7494002399040385 0.029988004798080725 1.0]] cplot
[[0.7494002399040385 0.029988004798080725 1.0][0.7476038338658146 0.059904153354632575 1.0]] cplot
[[0.7476038338658146 0.059904153354632575 1.0][0.7446193702670386 0.0896771622160223 1.0]] cplot
[[0.7446193702670386 0.0896771622160223 1.0][0.7404610492845788 0.11923688394276627 1.0]] cplot
[[0.7404610492845788 0.11923688394276627 1.0][0.7351485148514851 0.1485148514851485 1.0]] cplot
[[0.7351485148514851 0.1485148514851485 1.0][0.7287066246056783 0.17744479495268137 1.0]] cplot
[[0.7287066246056783 0.17744479495268137 1.0][0.7211651628089447 0.20596312279325224 1.0]] cplot
[[0.7211651628089447 0.20596312279325224 1.0][0.7125585023400935 0.23400936037441494 1.0]] cplot
[[0.7125585023400935 0.23400936037441494 1.0][0.7029252227818674 0.26152654010073617 1.0]] cplot
[[0.7029252227818674 0.26152654010073617 1.0][0.6923076923076923 0.28846153846153855 1.0]] cplot
[[0.6923076923076923 0.28846153846153855 1.0][0.6807516215185043 0.314765356734071 1.0]] cplot
[[0.6807516215185043 0.314765356734071 1.0][0.668305597579425 0.340393343419062 1.0]] cplot
[[0.668305597579425 0.340393343419062 1.0][0.6550206069689022 0.36530535781191453 1.0]] cplot
[[0.6550206069689022 0.36530535781191453 1.0][0.6409495548961425 0.3894658753709199 1.0]] cplot
[[0.6409495548961425 0.3894658753709199 1.0][0.6261467889908257 0.4128440366972477 1.0]] cplot
[[0.6261467889908257 0.4128440366972477 1.0][0.6106676342525399 0.43541364296081275 1.0]] cplot
[[0.6106676342525399 0.43541364296081275 1.0][0.5945679455001791 0.45715310147006094 1.0]] cplot
[[0.5945679455001791 0.45715310147006094 1.0][0.5779036827195467 0.4780453257790368 1.0]] cplot
[[0.5779036827195467 0.4780453257790368 1.0][0.5607305138063613 0.4980775952464173 1.0]] cplot
[[0.5607305138063613 0.4980775952464173 1.0][0.5431034482758621 0.5172413793103449 1.0]] cplot
[[0.5431034482758621 0.5172413793103449 1.0][0.5250765045902756 0.5355321319279157 1.0]] cplot
[[0.5250765045902756 0.5355321319279157 1.0][0.5067024128686327 0.5529490616621985 1.0]] cplot
[[0.5067024128686327 0.5529490616621985 1.0][0.48803235391218225 0.5694948827996039 1.0]] cplot
[[0.48803235391218225 0.5694948827996039 1.0][0.4691157347204161 0.5851755526657997 1.0]] cplot
[[0.4691157347204161 0.5851755526657997 1.0][0.45 0.6000000000000001 1.0]] cplot
[[0.45 0.6000000000000001 1.0][0.4307304785894206 0.6139798488664988 1.0]] cplot
[[0.4307304785894206 0.6139798488664988 1.0][0.41135026323939294 0.6271291421492722 1.0]] cplot
[[0.41135026323939294 0.6271291421492722 1.0][0.3919001218026796 0.6394640682095005 1.0]] cplot
[[0.3919001218026796 0.6394640682095005 1.0][0.3724184375935348 0.6510026938042501 1.0]] cplot
[[0.3724184375935348 0.6510026938042501 1.0][0.35294117647058826 0.6617647058823528 1.0]] cplot
[[0.35294117647058826 0.6617647058823528 1.0][0.33350187806992193 0.6717711644033515 1.0]] cplot
[[0.33350187806992193 0.6717711644033515 1.0][0.3141316685584563 0.6810442678774119 1.0]] cplot
[[0.3141316685584563 0.6810442678774119 1.0][0.2948592922819727 0.689607132906102 1.0]] cplot
[[0.2948592922819727 0.689607132906102 1.0][0.2757111597374179 0.6974835886214441 1.0]] cplot
[[0.2757111597374179 0.6974835886214441 1.0][0.2567114093959731 0.7046979865771812 1.0]] cplot
[[0.2567114093959731 0.7046979865771812 1.0][0.23788198103266597 0.7112750263435195 1.0]] cplot
[[0.23788198103266597 0.7112750263435195 1.0][0.21924269837167226 0.7172395967950375 1.0]] cplot
[[0.21924269837167226 0.7172395967950375 1.0][0.20081135902636915 0.7226166328600406 1.0]] cplot
[[0.20081135902636915 0.7226166328600406 1.0][0.1826038298930614 0.727430987316588 1.0]] cplot
[[0.1826038298930614 0.727430987316588 1.0][0.16463414634146334 0.7317073170731707 1.0]] cplot
[[0.16463414634146334 0.7317073170731707 1.0][0.14691461372877299 0.7354699832575938 1.0]] cplot
[[0.14691461372877299 0.7354699832575938 1.0][0.12945590994371492 0.7387429643527202 1.0]] cplot
[[0.12945590994371492 0.7387429643527202 1.0][0.11226718785927804 0.7415497815589791 1.0]] cplot
[[0.11226718785927804 0.7415497815589791 1.0][0.09535617673579808 0.7439134355275021 1.0]] cplot
[[0.09535617673579808 0.7439134355275021 1.0][0.0787292817679558 0.7458563535911601 1.0]] cplot
[[0.0787292817679558 0.7458563535911601 1.0][0.06239168110918546 0.7474003466204505 1.0]] cplot
[[0.06239168110918546 0.7474003466204505 1.0][0.04634741983435967 0.7485665746442981 1.0]] cplot
[[0.04634741983435967 0.7485665746442981 1.0][0.030599500416319744 0.7493755203996669 1.0]] cplot
[[0.030599500416319744 0.7493755203996669 1.0][0.015149969394001258 0.7498469700061212 1.0]] cplot
[[0.015149969394001258 0.7498469700061212 1.0][0.0 0.75 1.0]] cplot
[[0.5 0.0 1.0][0.4996001599360257 0.019992003198720427 1.0]] cplot
[[0.4996001599360257 0.019992003198720427 1.0][0.49840255591054305 0.03993610223642171 1.0]] cplot
[[0.49840255591054305 0.03993610223642171 1.0][0.4964129135113591 0.05978477481068152 1.0]] cplot
[[0.4964129135113591 0.05978477481068152 1.0][0.49364069952305256 0.07949125596184416 1.0]] cplot
[[0.49364069952305256 0.07949125596184416 1.0][0.4900990099009901 0.099009900990099 1.0]] cplot
[[0.4900990099009901 0.099009900990099 1.0][0.4858044164037855 0.1182965299684542 1.0]] cplot
[[0.4858044164037855 0.1182965299684542 1.0][0.4807767752059631 0.1373087485288348 1.0]] cplot
[[0.4807767752059631 0.1373087485288348 1.0][0.47503900156006235 0.15600624024960993 1.0]] cplot
[[0.47503900156006235 0.15600624024960993 1.0][0.46861681518791165 0.17435102673382416 1.0]] cplot
[[0.46861681518791165 0.17435102673382416 1.0][0.46153846153846145 0.19230769230769243 1.0]] cplot
[[0.46153846153846145 0.19230769230769243 1.0][0.45383441434566957 0.20984357115604738 1.0]] cplot
[[0.45383441434566957 0.20984357115604738 1.0][0.44553706505295 0.22692889561270801 1.0]] cplot
[[0.44553706505295 0.22692889561270801 1.0][0.4366804046459347 0.24353690520794308 1.0]] cplot
[[0.4366804046459347 0.24353690520794308 1.0][0.427299703264095 0.25964391691394667 1.0]] cplot
[[0.427299703264095 0.25964391691394667 1.0][0.41743119266055045 0.2752293577981651 1.0]] cplot
[[0.41743119266055045 0.2752293577981651 1.0][0.40711175616836 0.2902757619738751 1.0]] cplot
[[0.40711175616836 0.2902757619738751 1.0][0.3963786303334526 0.304768734313374 1.0]] cplot
[[0.3963786303334526 0.304768734313374 1.0][0.3852691218130312 0.3186968838526912 1.0]] cplot
[[0.3852691218130312 0.3186968838526912 1.0][0.37382034253757407 0.33205173016427825 1.0]] cplot
[[0.37382034253757407 0.33205173016427825 1.0][0.3620689655172414 0.3448275862068966 1.0]] cplot
[[0.3620689655172414 0.3448275862068966 1.0][0.3500510030601837 0.3570214212852771 1.0]] cplot
[[0.3500510030601837 0.3570214212852771 1.0][0.3378016085790885 0.368632707774799 1.0]] cplot
[[0.3378016085790885 0.368632707774799 1.0][0.32535490260812155 0.3796632551997359 1.0]] cplot
[[0.32535490260812155 0.3796632551997359 1.0][0.3127438231469441 0.39011703511053314 1.0]] cplot
[[0.3127438231469441 0.39011703511053314 1.0][0.30000000000000004 0.4 1.0]] cplot
[[0.30000000000000004 0.4 1.0][0.28715365239294705 0.4093198992443326 1.0]] cplot
[[0.28715365239294705 0.4093198992443326 1.0][0.274233508826262 0.4180860947661814 1.0]] cplot
[[0.274233508826262 0.4180860947661814 1.0][0.26126674786845305 0.4263093788063337 1.0]] cplot
[[0.26126674786845305 0.4263093788063337 1.0][0.2482789583956899 0.43400179586950005 1.0]] cplot
[[0.2482789583956899 0.43400179586950005 1.0][0.2352941176470589 0.4411764705882351 1.0]] cplot
[[0.2352941176470589 0.4411764705882351 1.0][0.222334585379948 0.44784744293556766 1.0]] cplot
[[0.222334585379948 0.44784744293556766 1.0][0.20942111237230424 0.4540295119182745 1.0]] cplot
[[0.20942111237230424 0.4540295119182745 1.0][0.19657286152131517 0.45973808860406806 1.0]] cplot
[[0.19657286152131517 0.45973808860406806 1.0][0.18380743982494527 0.4649890590809627 1.0]] cplot
[[0.18380743982494527 0.4649890590809627 1.0][0.1711409395973154 0.46979865771812074 1.0]] cplot
[[0.1711409395973154 0.46979865771812074 1.0][0.15858798735511065 0.47418335089567965 1.0]] cplot
[[0.15858798735511065 0.47418335089567965 1.0][0.1461617989144482 0.47815973119669164 1.0]] cplot
[[0.1461617989144482 0.47815973119669164 1.0][0.13387423935091272 0.48174442190669375 1.0]] cplot
[[0.13387423935091272 0.48174442190669375 1.0][0.12173588659537425 0.48495399154439195 1.0]] cplot
[[0.12173588659537425 0.48495399154439195 1.0][0.10975609756097557 0.4878048780487805 1.0]] cplot
[[0.10975609756097557 0.4878048780487805 1.0][0.097943075819182 0.49031332217172924 1.0]] cplot
[[0.097943075819182 0.49031332217172924 1.0][0.0863039399624767 0.4924953095684801 1.0]] cplot
[[0.0863039399624767 0.4924953095684801 1.0][0.07484479190618537 0.4943665210393194 1.0]] cplot
[[0.07484479190618537 0.4943665210393194 1.0][0.06357078449053212 0.495942290351668 1.0]] cplot
[[0.06357078449053212 0.495942290351668 1.0][0.0524861878453039 0.4972375690607734 1.0]] cplot
[[0.0524861878453039 0.4972375690607734 1.0][0.04159445407279034 0.498266897746967 1.0]] cplot
[[0.04159445407279034 0.498266897746967 1.0][0.03089827988957312 0.4990443830961987 1.0]] cplot
[[0.03089827988957312 0.4990443830961987 1.0][0.020399666944213163 0.49958368026644456 1.0]] cplot
[[0.020399666944213163 0.49958368026644456 1.0][0.01009997959600084 0.4998979800040808 1.0]] cplot
[[0.01009997959600084 0.4998979800040808 1.0][0.0 0.5 1.0]] cplot
[[1.25 0.0 1.0][1.249000399840064 0.04998000799680133 1.0]] cplot
[[1.249000399840064 0.04998000799680133 1.0][1.2460063897763578 0.09984025559105432 1.0]] cplot
[[1.2460063897763578 0.09984025559105432 1.0][1.2410322837783978 0.14946193702670385 1.0]] cplot
[[1.2410322837783978 0.14946193702670385 1.0][1.2341017488076313 0.19872813990461052 1.0]] cplot
[[1.2341017488076313 0.19872813990461052 1.0][1.2252475247524752 0.24752475247524755 1.0]] cplot
[[1.2252475247524752 0.24752475247524755 1.0][1.2145110410094637 0.2957413249211357 1.0]] cplot
[[1.2145110410094637 0.2957413249211357 1.0][1.201941938014908 0.34327187132208714 1.0]] cplot
[[1.201941938014908 0.34327187132208714 1.0][1.187597503900156 0.3900156006240249 1.0]] cplot
[[1.187597503900156 0.3900156006240249 1.0][1.1715420379697792 0.43587756683456025 1.0]] cplot
[[1.1715420379697792 0.43587756683456025 1.0][1.1538461538461537 0.4807692307692307 1.0]] cplot
[[1.1538461538461537 0.4807692307692307 1.0][1.134586035864174 0.5246089278901183 1.0]] cplot
[[1.134586035864174 0.5246089278901183 1.0][1.1138426626323752 0.5673222390317699 1.0]] cplot
[[1.1138426626323752 0.5673222390317699 1.0][1.091701011614837 0.6088422630198576 1.0]] cplot
[[1.091701011614837 0.6088422630198576 1.0][1.0682492581602374 0.6491097922848665 1.0]] cplot
[[1.0682492581602374 0.6491097922848665 1.0][1.0435779816513762 0.6880733944954127 1.0]] cplot
[[1.0435779816513762 0.6880733944954127 1.0][1.0177793904208998 0.7256894049346879 1.0]] cplot
[[1.0177793904208998 0.7256894049346879 1.0][0.990946575833632 0.7619218357834348 1.0]] cplot
[[0.990946575833632 0.7619218357834348 1.0][0.963172804532578 0.7967422096317281 1.0]] cplot
[[0.963172804532578 0.7967422096317281 1.0][0.9345508563439356 0.8301293254106954 1.0]] cplot
[[0.9345508563439356 0.8301293254106954 1.0][0.9051724137931034 0.8620689655172414 1.0]] cplot
[[0.9051724137931034 0.8620689655172414 1.0][0.8751275076504591 0.8925535532131929 1.0]] cplot
[[0.8751275076504591 0.8925535532131929 1.0][0.8445040214477212 0.9215817694369973 1.0]] cplot
[[0.8445040214477212 0.9215817694369973 1.0][0.8133872565203037 0.9491581379993398 1.0]] cplot
[[0.8133872565203037 0.9491581379993398 1.0][0.7818595578673603 0.9752925877763329 1.0]] cplot
[[0.7818595578673603 0.9752925877763329 1.0][0.75 1.0 1.0]] cplot
[[0.75 1.0 1.0][0.7178841309823678 1.0232997481108312 1.0]] cplot
[[0.7178841309823678 1.0232997481108312 1.0][0.6855837720656549 1.0452152369154537 1.0]] cplot
[[0.6855837720656549 1.0452152369154537 1.0][0.6531668696711326 1.0657734470158344 1.0]] cplot
[[0.6531668696711326 1.0657734470158344 1.0][0.6206973959892247 1.0850044896737503 1.0]] cplot
[[0.6206973959892247 1.0850044896737503 1.0][0.588235294117647 1.102941176470588 1.0]] cplot
[[0.588235294117647 1.102941176470588 1.0][0.5558364634498699 1.1196186073389194 1.0]] cplot
[[0.5558364634498699 1.1196186073389194 1.0][0.5235527809307604 1.1350737797956867 1.0]] cplot
[[0.5235527809307604 1.1350737797956867 1.0][0.49143215380328786 1.14934522151017 1.0]] cplot
[[0.49143215380328786 1.14934522151017 1.0][0.4595185995623631 1.162472647702407 1.0]] cplot
[[0.4595185995623631 1.162472647702407 1.0][0.42785234899328844 1.174496644295302 1.0]] cplot
[[0.42785234899328844 1.174496644295302 1.0][0.3964699683877766 1.1854583772391991 1.0]] cplot
[[0.3964699683877766 1.1854583772391991 1.0][0.3654044972861204 1.195399327991729 1.0]] cplot
[[0.3654044972861204 1.195399327991729 1.0][0.33468559837728196 1.2043610547667343 1.0]] cplot
[[0.33468559837728196 1.2043610547667343 1.0][0.30433971648843566 1.21238497886098 1.0]] cplot
[[0.30433971648843566 1.21238497886098 1.0][0.27439024390243894 1.2195121951219512 1.0]] cplot
[[0.27439024390243894 1.2195121951219512 1.0][0.24485768954795492 1.225783305429323 1.0]] cplot
[[0.24485768954795492 1.225783305429323 1.0][0.2157598499061914 1.2312382739212007 1.0]] cplot
[[0.2157598499061914 1.2312382739212007 1.0][0.1871119797654634 1.2359163025982984 1.0]] cplot
[[0.1871119797654634 1.2359163025982984 1.0][0.15892696122633002 1.2398557258791703 1.0]] cplot
[[0.15892696122633002 1.2398557258791703 1.0][0.1312154696132596 1.2430939226519335 1.0]] cplot
[[0.1312154696132596 1.2430939226519335 1.0][0.10398613518197568 1.2456672443674175 1.0]] cplot
[[0.10398613518197568 1.2456672443674175 1.0][0.07724569972393278 1.247610957740497 1.0]] cplot
[[0.07724569972393278 1.247610957740497 1.0][0.05099916736053291 1.2489592006661117 1.0]] cplot
[[0.05099916736053291 1.2489592006661117 1.0][0.025249948990002092 1.249744950010202 1.0]] cplot
[[0.025249948990002092 1.249744950010202 1.0][0.0 1.25 1.0]] cplot
[[1.5 0.0 1.0][1.498800479808077 0.05997600959616163 1.0]] cplot
[[1.498800479808077 0.05997600959616163 1.0][1.4952076677316293 0.11980830670926518 1.0]] cplot
[[1.4952076677316293 0.11980830670926518 1.0][1.4892387405340772 0.17935432443204463 1.0]] cplot
[[1.4892387405340772 0.17935432443204463 1.0][1.4809220985691574 0.23847376788553265 1.0]] cplot
[[1.4809220985691574 0.23847376788553265 1.0][1.4702970297029703 0.29702970297029707 1.0]] cplot
[[1.4702970297029703 0.29702970297029707 1.0][1.4574132492113565 0.35488958990536285 1.0]] cplot
[[1.4574132492113565 0.35488958990536285 1.0][1.4423303256178894 0.4119262455865046 1.0]] cplot
[[1.4423303256178894 0.4119262455865046 1.0][1.4251170046801873 0.4680187207488299 1.0]] cplot
[[1.4251170046801873 0.4680187207488299 1.0][1.4058504455637348 0.5230530802014722 1.0]] cplot
[[1.4058504455637348 0.5230530802014722 1.0][1.3846153846153846 0.5769230769230769 1.0]] cplot
[[1.3846153846153846 0.5769230769230769 1.0][1.3615032430370086 0.6295307134681419 1.0]] cplot
[[1.3615032430370086 0.6295307134681419 1.0][1.3366111951588502 0.6807866868381239 1.0]] cplot
[[1.3366111951588502 0.6807866868381239 1.0][1.3100412139378044 0.7306107156238291 1.0]] cplot
[[1.3100412139378044 0.7306107156238291 1.0][1.2818991097922847 0.7789317507418398 1.0]] cplot
[[1.2818991097922847 0.7789317507418398 1.0][1.2522935779816513 0.8256880733944953 1.0]] cplot
[[1.2522935779816513 0.8256880733944953 1.0][1.2213352685050798 0.8708272859216255 1.0]] cplot
[[1.2213352685050798 0.8708272859216255 1.0][1.1891358910003584 0.9143062029401217 1.0]] cplot
[[1.1891358910003584 0.9143062029401217 1.0][1.1558073654390935 0.9560906515580738 1.0]] cplot
[[1.1558073654390935 0.9560906515580738 1.0][1.1214610276127228 0.9961551904928345 1.0]] cplot
[[1.1214610276127228 0.9961551904928345 1.0][1.0862068965517242 1.0344827586206897 1.0]] cplot
[[1.0862068965517242 1.0344827586206897 1.0][1.0501530091805509 1.0710642638558314 1.0]] cplot
[[1.0501530091805509 1.0710642638558314 1.0][1.0134048257372654 1.1058981233243967 1.0]] cplot
[[1.0134048257372654 1.1058981233243967 1.0][0.9760647078243645 1.1389897655992078 1.0]] cplot
[[0.9760647078243645 1.1389897655992078 1.0][0.9382314694408322 1.1703511053315994 1.0]] cplot
[[0.9382314694408322 1.1703511053315994 1.0][0.8999999999999999 1.2000000000000002 1.0]] cplot
[[0.8999999999999999 1.2000000000000002 1.0][0.8614609571788414 1.2279596977329976 1.0]] cplot
[[0.8614609571788414 1.2279596977329976 1.0][0.8227005264787859 1.2542582842985444 1.0]] cplot
[[0.8227005264787859 1.2542582842985444 1.0][0.7838002436053592 1.2789281364190013 1.0]] cplot
[[0.7838002436053592 1.2789281364190013 1.0][0.7448368751870696 1.3020053876085003 1.0]] cplot
[[0.7448368751870696 1.3020053876085003 1.0][0.7058823529411764 1.3235294117647058 1.0]] cplot
[[0.7058823529411764 1.3235294117647058 1.0][0.6670037561398439 1.3435423288067032 1.0]] cplot
[[0.6670037561398439 1.3435423288067032 1.0][0.6282633371169125 1.362088535754824 1.0]] cplot
[[0.6282633371169125 1.362088535754824 1.0][0.5897185845639454 1.379214265812204 1.0]] cplot
[[0.5897185845639454 1.379214265812204 1.0][0.5514223194748357 1.3949671772428884 1.0]] cplot
[[0.5514223194748357 1.3949671772428884 1.0][0.5134228187919461 1.4093959731543624 1.0]] cplot
[[0.5134228187919461 1.4093959731543624 1.0][0.47576396206533195 1.422550052687039 1.0]] cplot
[[0.47576396206533195 1.422550052687039 1.0][0.43848539674334447 1.434479193590075 1.0]] cplot
[[0.43848539674334447 1.434479193590075 1.0][0.4016227180527384 1.4452332657200813 1.0]] cplot
[[0.4016227180527384 1.4452332657200813 1.0][0.3652076597861228 1.454861974633176 1.0]] cplot
[[0.3652076597861228 1.454861974633176 1.0][0.3292682926829267 1.4634146341463414 1.0]] cplot
[[0.3292682926829267 1.4634146341463414 1.0][0.2938292274575459 1.4709399665151877 1.0]] cplot
[[0.2938292274575459 1.4709399665151877 1.0][0.2589118198874296 1.4774859287054407 1.0]] cplot
[[0.2589118198874296 1.4774859287054407 1.0][0.22453437571855606 1.4830995631179582 1.0]] cplot
[[0.22453437571855606 1.4830995631179582 1.0][0.19071235347159599 1.4878268710550044 1.0]] cplot
[[0.19071235347159599 1.4878268710550044 1.0][0.1574585635359115 1.4917127071823204 1.0]] cplot
[[0.1574585635359115 1.4917127071823204 1.0][0.1247833622183708 1.4948006932409013 1.0]] cplot
[[0.1247833622183708 1.4948006932409013 1.0][0.09269483966871933 1.4971331492885964 1.0]] cplot
[[0.09269483966871933 1.4971331492885964 1.0][0.06119900083263949 1.4987510407993339 1.0]] cplot
[[0.06119900083263949 1.4987510407993339 1.0][0.03029993878800251 1.4996939400122424 1.0]] cplot
[[0.03029993878800251 1.4996939400122424 1.0][0.0 1.5 1.0]] cplot
0.0 0.0 0.5 0.5 viewport
0.0 0.0 0.0 setrgbcolor
-0.2 -1.2 1.2 1.2 window
[[0.0 1.0 1.0][0.5 -1.0 1.0][1.0 1.0 1.0]] cplot
0.0 1.0 mv 0.5 -1.0 ln 1.0 1.0 ln stroke
0.5 0.0 1.0 0.5 viewport
-0.2 -1.2 1.2 1.2 window
[[0.0 1.0000000000000016 1.0][0.16666666666666666 0.3333333333333347 1.0][0.3333333333333333 -0.06666666666666554 1.0][0.5 -0.1999999999999993 1.0][0.6666666666666666 -0.06666666666666599 1.0][0.8333333333333333 0.33333333333333437 1.0][1.0 1.0000000000000027 1.0]] cplot
0.0 1.0000000000000016 mv 0.16666666666666666 0.3333333333333347 ln 0.3333333333333333 -0.06666666666666554 ln 0.5 -0.1999999999999993 ln 0.6666666666666666 -0.06666666666666599 ln 0.8333333333333333 0.33333333333333437 ln 1.0 1.0000000000000027 ln stroke
0.0 0.0 1.0 1.0 viewport
0.0 0.0 1.0 1.0 window
0.0 0.0 0.0 setrgbcolor
0.52 0.02 mv /Times-Roman findfont 9.0 scalefont setfont (Steven Schmidt, Project 2, CS557, Sep. 24, 2016) show
