%!PS-Adobe-2.0 EPSF-1.2
%%BoundingBox: 0 0 432 432
/bb [0 0 432 432] def
/window {/wy1 exch def  /wx1 exch def  /wy0 exch def  /wx0 exch def} def
/viewport {
	/vy1 exch bb 3 get bb 1 get sub mul bb 1 get add def	/vx1 exch bb 2 get bb 0 get sub mul bb 0 get add def
	/vy0 exch bb 3 get bb 1 get sub mul bb 1 get add def	/vx0 exch bb 2 get bb 0 get sub mul bb 0 get add def
}def
0 0 1 1 viewport			0 0 1 1 window
/wvmap {wy0 sub vy1 vy0 sub wy1 wy0 sub div mul vy0 add exch  wx0 sub vx1 vx0 sub wx1 wx0 sub div mul vx0 add exch} def
/mv {wvmap moveto} def			/ln {wvmap lineto} def
/h2c  {dup dup 0 get exch 2 get div exch dup 1 get exch 2 get div} def
/mvh  {h2c  mv} def		/lnh  {h2c ln} def
/border {newpath wx0 wy0 mv wx1 wy0 ln wx1 wy1 ln wx0 wy1 ln closepath} def
%====================== Functions to draw a Bezier Curve and its control polygon  ====================
/cplot{5 dict begin	%  plot a rational Bezier curve with homogeneous control points.
		/cp exch def
		cp 0 get  mvh   % move to first point on curve
		0 .01 1{  cp exch poft  lnh	}for stroke
end}  bind def
/cpplot{5 dict begin % Draw the control polygon of a Bezier curve
		/p exch def		p 0 get mvh			1 1 p length 1 sub{p exch get lnh }for
end}def
/poft{10 dict begin   %  evaluate a rational Bezier curve.  Syntax:     curve   t  poft  =>  point
		/t exch def		/p exch def
		/deg  p length 1 sub  def		/u 1 t sub def		/bc 1 def		/tn 1 def
		/tmp p 0 get u scaleh def
		1  1  deg 1 sub { /i exch def
			/tn tn t mul def
			/bc bc deg i sub 1 add mul i div def
			/tmp  p i get tn bc mul scaleh tmp addh u scaleh def
		} for
		p deg get tn t mul scaleh tmp addh
end}  bind def
/addh{5 dict begin   % add two vectors
	/a exch def		/b exch def 	[a 0 get b 0 get add  a 1 get b 1 get add   a 2 get b 2 get add]  end
} bind def
/scaleh{5 dict begin   % scale a vector :   vec scalar  scaleh
		/b exch def		/a exch def  [a 0 get b mul   a 1 get b mul  a 2 get b mul]	end
} bind def
/circ{5 dict begin /r exch def  /y exch def  /x exch def x r add y mv 3 3 360{dup cos r mul x add exch sin r mul y add ln}for stroke} bind def
%=========================================================================

-0.3 -0.3 1.3 1.3 window
0.0 0.5 0.5 1.0 viewport
[[1.0 0.0 1.0][-1.0 0.0 1.0]] cplot
[[0.99 0.19 1.0][-0.4860000000000002 0.02600000000000008 1.0]] cplot
[[0.96 0.36000000000000004 1.0][-0.12799999999999967 0.08800000000000024 1.0]] cplot
[[0.9099999999999999 0.51 1.0][0.09799999999999975 0.16200000000000003 1.0]] cplot
[[0.84 0.64 1.0][0.21600000000000008 0.22400000000000003 1.0]] cplot
[[0.75 0.75 1.0][0.2499999999999999 0.2499999999999999 1.0]] cplot
[[0.6399999999999999 0.8400000000000001 1.0][0.22399999999999992 0.21599999999999997 1.0]] cplot
[[0.5099999999999999 0.91 1.0][0.16200000000000003 0.09800000000000009 1.0]] cplot
[[0.3599999999999999 0.96 1.0][0.08800000000000002 -0.12800000000000034 1.0]] cplot
[[0.18999999999999995 0.99 1.0][0.026000000000000023 -0.4860000000000002 1.0]] cplot
[[0.0 1.0 1.0][0.0 -1.0 1.0]] cplot
0.75 0.75 mv /Times-Roman findfont 9 scalefont setfont (1.41421356237) show
1.0 0.0 mv /Times-Roman findfont 9 scalefont setfont (0.5) show
0.0 1.0 mv /Times-Roman findfont 9 scalefont setfont (0.5) show
1.0 0.0 0.0 setrgbcolor
[[1.0 0.0 1.0][1.0 1.0 1.0][0.0 1.0 1.0]] cplot
0.0 0.0 1.0 setrgbcolor
[[1.0 0.0 1.0][1.1131370849898476 0.0 1.0]] cplot
[[0.9999 0.0199 1.0][1.1164764384766857 0.02107753978259279 1.0]] cplot
[[0.9996 0.039599999999999996 1.0][1.1197061018334737 0.04205114493537702 1.0]] cplot
[[0.9991 0.0591 1.0][1.1228255368410398 0.0629265629950837 1.0]] cplot
[[0.9984 0.0784 1.0][1.1258337978103226 0.0837097415754301 1.0]] cplot
[[0.9975 0.0975 1.0][1.1287294871833646 0.10440681511491395 1.0]] cplot
[[0.9964 0.11639999999999999 1.0][1.1315107087424219 0.12502408779206947 1.0]] cplot
[[0.9951 0.1351 1.0][1.1341750186075215 0.14556801215325432 1.0]] cplot
[[0.9936 0.15360000000000001 1.0][1.1367193742743524 0.16604516298037847 1.0]] cplot
[[0.9919 0.1719 1.0][1.139140082026122 0.1864622059146714 1.0]] cplot
[[0.99 0.19 1.0][1.1414327431452451 0.20682586034947167 1.0]] cplot
[[0.9879 0.2079 1.0][1.1435921994534977 0.22714285611223006 1.0]] cplot
[[0.9856 0.2256 1.0][1.1456124788222133 0.24741988347575636 1.0]] cplot
[[0.9831 0.2431 1.0][1.1474867414165153 0.26766353607373217 1.0]] cplot
[[0.9804 0.2604 1.0][1.1492072275681549 0.2878802463483043 1.0]] cplot
[[0.9775 0.27749999999999997 1.0][1.1507652083084015 0.30807621323089435 1.0]] cplot
[[0.9744 0.2944 1.0][1.152150939732983 0.32825732185390155 1.0]] cplot
[[0.9711 0.31110000000000004 1.0][1.1533536225118795 0.34842905521327655 1.0]] cplot
[[0.9676 0.3276 1.0][1.1543613679935507 0.36859639785224285 1.0]] cplot
[[0.9639 0.3439 1.0][1.1551611724806772 0.3887637318164551 1.0]] cplot
[[0.96 0.36000000000000004 1.0][1.1557389013665185 0.40893472534162967 1.0]] cplot
[[0.9559 0.3759 1.0][1.1560792849104489 0.4291122149761953 1.0]] cplot
[[0.9516 0.3916 1.0][1.1561659274901332 0.44929808211260164 1.0]] cplot
[[0.9471 0.4071 1.0][1.155981332187519 0.4694931251988693 1.0]] cplot
[[0.9424 0.4224 1.0][1.1555069425372981 0.4896969292223047 1.0]] cplot
[[0.9375 0.4375 1.0][1.1547232031805075 0.5099077343935025 1.0]] cplot
[[0.9324 0.4524 1.0][1.1536096410137147 0.530122306302116 1.0]] cplot
[[0.9271 0.4671 1.0][1.1521449681977836 0.5503358101553446 1.0]] cplot
[[0.9216 0.48160000000000003 1.0][1.1503072080831074 0.5705416920323196 1.0]] cplot
[[0.9158999999999999 0.49589999999999995 1.0][1.1480738447162084 0.5907315703770428 1.0]] cplot
[[0.91 0.51 1.0][1.1454219961144272 0.6108951411918975 1.0]] cplot
[[0.9038999999999999 0.5239 1.0][1.1423286109335078 0.6310201005643297 1.0]] cplot
[[0.8976 0.5376 1.0][1.1387706875139698 0.6510920882418681 1.0]] cplot
[[0.8911 0.5511 1.0][1.1347255135879877 0.6710946559463224 1.0]] cplot
[[0.8844 0.5644 1.0][1.1301709241760536 0.6910092639694823 1.0]] cplot
[[0.8775 0.5775 1.0][1.1250855744243782 0.7108153093054346 1.0]] cplot
[[0.8704000000000001 0.5904 1.0][1.119449223357271 0.730490188138465 1.0]] cplot
[[0.8631 0.6031 1.0][1.113243023775623 0.7500093949158421 1.0]] cplot
[[0.8556 0.6156 1.0][1.1064498128584228 0.769346659493872 1.0]] cplot
[[0.8479 0.6279 1.0][1.0990543974561666 0.7884741229637786 1.0]] cplot
[[0.84 0.64 1.0][1.0910438276401946 0.8073625517601297 1.0]] cplot
[[0.8319 0.6519 1.0][1.0824076518251882 0.8259815885564867 1.0]] cplot
[[0.8236 0.6636 1.0][1.073138146743338 0.8443000372968998 1.0]] cplot
[[0.8151 0.6751 1.0][1.0632305157408832 0.862286178541368 1.0]] cplot
[[0.8064 0.6864 1.0][1.0526830493041943 0.8799081101675813 1.0]] cplot
[[0.7975 0.6975 1.0][1.041497242405318 0.8971341074225329 1.0]] cplot
[[0.7884 0.7084 1.0][1.0296778641753104 0.9139329954085977 1.0]] cplot
[[0.7791 0.7191000000000001 1.0][1.0172329765439845 0.9302745263691938 1.0]] cplot
[[0.7696000000000001 0.7296 1.0][1.0041738997903704 0.9461297536526496 1.0]] cplot
[[0.7599 0.7399 1.0][0.9905151243813642 0.9614713940134676 1.0]] cplot
[[0.75 0.75 1.0][0.9762741699796953 0.9762741699796953 1.0]] cplot
[[0.7399 0.7599 1.0][0.9614713940134676 0.9905151243813642 1.0]] cplot
[[0.7296 0.7696000000000001 1.0][0.9461297536526496 1.0041738997903704 1.0]] cplot
[[0.7191 0.7791 1.0][0.9302745263691936 1.0172329765439845 1.0]] cplot
[[0.7083999999999999 0.7884 1.0][0.9139329954085976 1.0296778641753104 1.0]] cplot
[[0.6975 0.7975000000000001 1.0][0.8971341074225329 1.041497242405318 1.0]] cplot
[[0.6863999999999999 0.8064 1.0][0.8799081101675811 1.0526830493041943 1.0]] cplot
[[0.6750999999999999 0.8151 1.0][0.8622861785413678 1.063230515740883 1.0]] cplot
[[0.6636 0.8236 1.0][0.8443000372968998 1.0731381467433379 1.0]] cplot
[[0.6519 0.8319 1.0][0.8259815885564867 1.0824076518251882 1.0]] cplot
[[0.64 0.84 1.0][0.8073625517601297 1.0910438276401946 1.0]] cplot
[[0.6279 0.8479 1.0][0.7884741229637786 1.0990543974561666 1.0]] cplot
[[0.6155999999999999 0.8556 1.0][0.7693466594938718 1.1064498128584226 1.0]] cplot
[[0.6031 0.8631 1.0][0.7500093949158421 1.113243023775623 1.0]] cplot
[[0.5904 0.8704000000000001 1.0][0.730490188138465 1.119449223357271 1.0]] cplot
[[0.5774999999999999 0.8775 1.0][0.7108153093054344 1.1250855744243782 1.0]] cplot
[[0.5644 0.8844000000000001 1.0][0.6910092639694823 1.1301709241760538 1.0]] cplot
[[0.5510999999999999 0.8911 1.0][0.6710946559463222 1.1347255135879877 1.0]] cplot
[[0.5375999999999999 0.8976000000000001 1.0][0.651092088241868 1.1387706875139698 1.0]] cplot
[[0.5238999999999999 0.9039 1.0][0.6310201005643296 1.142328610933508 1.0]] cplot
[[0.5099999999999999 0.91 1.0][0.6108951411918973 1.1454219961144274 1.0]] cplot
[[0.4959 0.9158999999999999 1.0][0.5907315703770429 1.1480738447162084 1.0]] cplot
[[0.48160000000000003 0.9216 1.0][0.5705416920323196 1.1503072080831074 1.0]] cplot
[[0.46710000000000007 0.9271 1.0][0.5503358101553447 1.1521449681977836 1.0]] cplot
[[0.4524 0.9324 1.0][0.530122306302116 1.1536096410137147 1.0]] cplot
[[0.4375 0.9375 1.0][0.5099077343935025 1.1547232031805075 1.0]] cplot
[[0.4224 0.9424 1.0][0.4896969292223047 1.1555069425372981 1.0]] cplot
[[0.4071 0.9471 1.0][0.4694931251988693 1.155981332187519 1.0]] cplot
[[0.39159999999999995 0.9516 1.0][0.4492980821126016 1.1561659274901332 1.0]] cplot
[[0.3758999999999999 0.9559 1.0][0.42911221497619517 1.1560792849104489 1.0]] cplot
[[0.3599999999999999 0.96 1.0][0.40893472534162945 1.1557389013665185 1.0]] cplot
[[0.3438999999999999 0.9639 1.0][0.388763731816455 1.1551611724806772 1.0]] cplot
[[0.3275999999999999 0.9676 1.0][0.3685963978522427 1.1543613679935507 1.0]] cplot
[[0.31109999999999993 0.9711000000000001 1.0][0.3484290552132764 1.1533536225118795 1.0]] cplot
[[0.2944000000000001 0.9743999999999999 1.0][0.3282573218539016 1.152150939732983 1.0]] cplot
[[0.2775000000000001 0.9775 1.0][0.3080762132308945 1.1507652083084015 1.0]] cplot
[[0.2604000000000001 0.9803999999999999 1.0][0.28788024634830434 1.1492072275681549 1.0]] cplot
[[0.24309999999999998 0.9831 1.0][0.26766353607373217 1.1474867414165153 1.0]] cplot
[[0.22560000000000002 0.9856 1.0][0.24741988347575639 1.1456124788222133 1.0]] cplot
[[0.20789999999999997 0.9879 1.0][0.22714285611223 1.1435921994534977 1.0]] cplot
[[0.18999999999999995 0.99 1.0][0.20682586034947162 1.1414327431452451 1.0]] cplot
[[0.17189999999999994 0.9919 1.0][0.18646220591467133 1.139140082026122 1.0]] cplot
[[0.15359999999999996 0.9936 1.0][0.1660451629803784 1.1367193742743524 1.0]] cplot
[[0.1350999999999999 0.9951 1.0][0.14556801215325418 1.1341750186075215 1.0]] cplot
[[0.11639999999999984 0.9964 1.0][0.1250240877920693 1.1315107087424219 1.0]] cplot
[[0.09749999999999992 0.9975 1.0][0.10440681511491384 1.1287294871833646 1.0]] cplot
[[0.07840000000000003 0.9984 1.0][0.08370974157543012 1.1258337978103226 1.0]] cplot
[[0.05910000000000004 0.9991 1.0][0.06292656299508374 1.1228255368410398 1.0]] cplot
[[0.03960000000000008 0.9996 1.0][0.0420511449353771 1.1197061018334737 1.0]] cplot
[[0.01990000000000003 0.9999 1.0][0.021077539782592816 1.1164764384766857 1.0]] cplot
[[0.0 1.0 1.0][0.0 1.1131370849898476 1.0]] cplot
0.5 0.5 1.0 1.0 viewport
-0.1 -0.1 1.3 1.3 window
0.0 0.0 0.0 setrgbcolor
[[1.0 0.0 1.0][0.0 0.0 1.0]] cplot
[[0.9801980198019802 0.19801980198019803 1.0][-4.440892098500626e-16 -1.1102230246251565e-16 1.0]] cplot
[[0.923076923076923 0.38461538461538464 1.0][3.3306690738754696e-16 3.885780586188048e-16 1.0]] cplot
[[0.8348623853211008 0.5504587155963303 1.0][-1.1102230246251565e-16 2.220446049250313e-16 1.0]] cplot
[[0.7241379310344828 0.6896551724137931 1.0][3.3306690738754696e-16 3.3306690738754696e-16 1.0]] cplot
[[0.6 0.8 1.0][0.0 -2.220446049250313e-16 1.0]] cplot
[[0.47058823529411753 0.8823529411764707 1.0][-5.551115123125783e-17 0.0 1.0]] cplot
[[0.34228187919463077 0.9395973154362416 1.0][1.1102230246251565e-16 1.1102230246251565e-16 1.0]] cplot
[[0.21951219512195114 0.975609756097561 1.0][-5.551115123125783e-17 -2.220446049250313e-16 1.0]] cplot
[[0.1049723756906077 0.9944751381215469 1.0][9.71445146547012e-17 -1.1102230246251565e-16 1.0]] cplot
[[0.0 1.0 1.0][0.0 0.0 1.0]] cplot
1.0 0.0 0.0 setrgbcolor
[[1.0 0.0 1.0][1.0 1.0 1.0][0.0 2.0 2.0]] cplot
0.0 0.0 1.0 setrgbcolor
[[1.0 0.0 1.0][1.2799999999999998 0.0 1.0]] cplot
[[0.9998000199980002 0.019998000199980003 1.0][1.27974402559744 0.025597440255974394 1.0]] cplot
[[0.9992003198720513 0.03998400639744103 1.0][1.2789764094362253 0.05117952818872455 1.0]] cplot
[[0.9982016185433111 0.059946048556299335 1.0][1.277698071735438 0.07673094215206319 1.0]] cplot
[[0.9968051118210862 0.07987220447284345 1.0][1.27591054313099 0.1022364217252396 1.0]] cplot
[[0.9950124688279303 0.09975062344139651 1.0][1.2736159600997503 0.12768079800498755 1.0]] cplot
[[0.9928258270227182 0.11956954962136308 1.0][1.270817058589079 0.15304902351534472 1.0]] cplot
[[0.9902477858493384 0.1393173450094537 1.0][1.2675171658871527 0.17832620161210078 1.0]] cplot
[[0.987281399046105 0.1589825119236884 1.0][1.263720190779014 0.20349761526232113 1.0]] cplot
[[0.9839301656581688 0.1785537149092352 1.0][1.2594306120424559 0.228548755083821 1.0]] cplot
[[0.9801980198019802 0.19801980198019803 1.0][1.2546534653465342 0.2534653465346534 1.0]] cplot
[[0.9760893192372295 0.21736982511609526 1.0][1.2493943286236535 0.2782333761486019 1.0]] cplot
[[0.971608832807571 0.23659305993690852 1.0][1.2436593059936905 0.30283911671924285 1.0]] cplot
[[0.9667617268167962 0.2556790244861835 1.0][1.2374550103254989 0.3272691513423148 1.0]] cplot
[[0.9615535504119262 0.2746174970576697 1.0][1.2307885445272653 0.35151039623381714 1.0]] cplot
[[0.9559902200488998 0.2933985330073349 1.0][1.2236674816625916 0.37555012224938866 1.0]] cplot
[[0.9500780031201248 0.3120124804992199 1.0][1.2160998439937596 0.3993759750390014 1.0]] cplot
[[0.943823500826125 0.33044999514044127 1.0][1.2080940810574397 0.4229759937797647 1.0]] cplot
[[0.9372336303758233 0.3487020534676482 1.0][1.1996590468810535 0.44633862843858957 1.0]] cplot
[[0.9303156066016793 0.3667599652543191 1.0][1.1908039764501495 0.46945275552552834 1.0]] cplot
[[0.923076923076923 0.38461538461538464 1.0][1.1815384615384614 0.4923076923076922 1.0]] cplot
[[0.9155253328225266 0.40226031989273053 1.0][1.171872426012834 0.514893209462695 1.0]] cplot
[[0.9076688286913391 0.41968714231209464 1.0][1.161816100724914 0.5371995421594811 1.0]] cplot
[[0.8995156235160036 0.4368885934086808 1.0][1.1513799981004844 0.5592173995631113 1.0]] cplot
[[0.8910741301059001 0.453857791225416 1.0][1.1405748865355518 0.5809379727685323 1.0]] cplot
[[0.8823529411764706 0.47058823529411764 1.0][1.1294117647058821 0.6023529411764704 1.0]] cplot
[[0.8733608092918695 0.48707381041588604 1.0][1.1179018358935928 0.6234544773323341 1.0]] cplot
[[0.8641066268990587 0.5033087892627459 1.0][1.1060564824307948 0.6442352502563147 1.0]] cplot
[[0.8545994065281899 0.5192878338278932 1.0][1.0938872403560829 0.6646884272997031 1.0]] cplot
[[0.8448482612305137 0.5350059957568489 1.0][1.0814057743750574 0.6848076745687665 1.0]] cplot
[[0.8348623853211009 0.5504587155963302 1.0][1.0686238532110088 0.7045871559633025 1.0]] cplot
[[0.8246510354894625 0.5656418210017333 1.0][1.055553325426512 0.7240215308822184 1.0]] cplot
[[0.8142235123367199 0.5805515239477503 1.0][1.0422060957910009 0.7431059506531201 1.0]] cplot
[[0.8035891423933628 0.5951844169898097 1.0][1.028594102263504 0.7618360537469562 1.0]] cplot
[[0.7927572606669055 0.6095374686267478 1.0][1.014729293653639 0.780207959842237 1.0]] cplot
[[0.7817371937639197 0.623608017817372 1.0][1.000623608017817 0.7982182628062359 1.0]] cplot
[[0.7705382436260624 0.6373937677053825 1.0][0.9862889518413597 0.8158640226628895 1.0]] cplot
[[0.7591696719148562 0.6508927786084968 1.0][0.9717371800510157 0.8331427566188758 1.0]] cplot
[[0.7476406850751485 0.6641034603285564 1.0][0.9569800768961901 0.8500524292205521 1.0]] cplot
[[0.7359604201024216 0.6770245638399444 1.0][0.9420293377310994 0.8665914417151285 1.0]] cplot
[[0.7241379310344828 0.6896551724137931 1.0][0.9268965517241378 0.882758620689655 1.0]] cplot
[[0.7121821761835458 0.7019946922352538 1.0][0.9115931855149385 0.8985532060611247 1.0]] cplot
[[0.7001020061203673 0.7140428425705543 1.0][0.89613056783407 0.9139748384903094 1.0]] cplot
[[0.6879061524179255 0.725799645539708 1.0][0.8805198750949446 0.9290235462908261 1.0]] cplot
[[0.675603217158177 0.7372654155495979 1.0][0.8647721179624663 0.9436997319034852 1.0]] cplot
[[0.6632016632016633 0.7484407484407485 1.0][0.8488981288981287 0.9580041580041577 1.0]] cplot
[[0.650709805216243 0.7593265103994719 1.0][0.8329085506767909 0.9719379333113238 1.0]] cplot
[[0.6381358014579408 0.7699238266852322 1.0][0.8168138258661641 0.985502498157097 1.0]] cplot
[[0.6254876462938882 0.7802340702210663 1.0][0.8006241872561767 0.9986996098829646 1.0]] cplot
[[0.6127731634545601 0.7902588500927344 1.0][0.7843496492218368 1.0115313281187 1.0]] cplot
[[0.6 0.8 1.0][0.7679999999999998 1.0239999999999998 1.0]] cplot
[[0.5871756209824617 0.8094595667010555 1.0][0.7515847948575508 1.036108245377351 1.0]] cplot
[[0.5743073047858942 0.8186397984886651 1.0][0.7351133501259444 1.047858942065491 1.0]] cplot
[[0.5614021391209306 0.8275431337340933 1.0][0.718594738074791 1.059255211179639 1.0]] cplot
[[0.5484670176525239 0.8361721895323629 1.0][0.7020377825952304 1.0703004026014244 1.0]] cplot
[[0.5355086372360844 0.8445297504798466 1.0][0.6854510556621879 1.0809980806142032 1.0]] cplot
[[0.5225334957369061 0.8526187576126675 1.0][0.6688428745432397 1.0913520097442142 1.0]] cplot
[[0.5095478904068231 0.8604422975318893 1.0][0.6522212997207334 1.101366140840818 1.0]] cplot
[[0.4965579167913798 0.8680035917390002 1.0][0.635594133492966 1.11104459742592 1.0]] cplot
[[0.48356946814034574 0.8753059862028039 1.0][0.6189689192196424 1.1203916623395886 1.0]] cplot
[[0.47058823529411764 0.8823529411764705 1.0][0.6023529411764704 1.1294117647058821 1.0]] cplot
[[0.45761970701843896 0.8891480212812476 1.0][0.5857532249836017 1.1381094672399967 1.0]] cplot
[[0.4446691707598959 0.8956948858711354 1.0][0.5691765385726666 1.1464894539150532 1.0]] cplot
[[0.4317417137948314 0.9019972796907436 1.0][0.5526293936573841 1.154556518004152 1.0]] cplot
[[0.41884222474460836 0.9080590238365492 1.0][0.5361180476730987 1.162315550510783 1.0]] cplot
[[0.4059753954305799 0.9138840070298769 1.0][0.5196485061511422 1.1697715289982422 1.0]] cplot
[[0.3931457230426303 0.919476177208136 1.0][0.5032265254945667 1.1769295068264138 1.0]] cplot
[[0.3803575125957622 0.9248395334391606 1.0][0.48685761612257555 1.1837946028021256 1.0]] cplot
[[0.3676148796498905 0.9299781181619255 1.0][0.4705470459518597 1.1903719912472646 1.0]] cplot
[[0.3549217532687487 0.9348960097554365 1.0][0.4542998441839982 1.1966668924869586 1.0]] cplot
[[0.34228187919463077 0.9395973154362416 1.0][0.4381208053691273 1.202684563758389 1.0]] cplot
[[0.3296988232165415 0.9440861644837444 1.0][0.422014493717173 1.2084302905391926 1.0]] cplot
[[0.3171759747102213 0.9483667017913593 1.0][0.40598524762908317 1.2139093782929398 1.0]] cplot
[[0.304716550329441 0.9524430817404919 1.0][0.3900371844216844 1.2191271446278293 1.0]] cplot
[[0.29232359782889633 0.9563194623933833 1.0][0.37417420522098715 1.22408891186353 1.0]] cplot
[[0.28 0.96 1.0][0.35839999999999994 1.2287999999999997 1.0]] cplot
[[0.26774847870182555 0.9634888438133875 1.0][0.34271805273833666 1.2332657200811359 1.0]] cplot
[[0.2555715989704313 0.9667901312072321 1.0][0.327131646682152 1.2374913679452568 1.0]] cplot
[[0.24347177319074853 0.9699079830887839 1.0][0.311643869684158 1.2414822183536431 1.0]] cplot
[[0.23145126531617505 0.9728464995997783 1.0][0.296257619604704 1.2452435194877158 1.0]] cplot
[[0.21951219512195114 0.975609756097561 1.0][0.28097560975609737 1.2487804878048776 1.0]] cplot
[[0.20765654247931878 0.9782017994082483 1.0][0.26580037437352794 1.2520983032425574 1.0]] cplot
[[0.19588615163836395 0.9806266443434585 1.0][0.2507342740971058 1.2552021047596265 1.0]] cplot
[[0.18420273550831898 0.9828882704719049 1.0][0.23577950145064824 1.2580969862040379 1.0]] cplot
[[0.17260787992495316 0.9849906191369604 1.0][0.22093808630393993 1.2607879924953092 1.0]] cplot
[[0.16110304789550076 0.9869375907111755 1.0][0.20621190130624087 1.2632801161103044 1.0]] cplot
[[0.1496895838123707 0.9887330420786388 1.0][0.19160266727983447 1.2655782938606572 1.0]] cplot
[[0.13836871762763958 0.9903807843360464 1.0][0.1771119585633786 1.2676874039501391 1.0]] cplot
[[0.12714156898106405 0.9918845807033362 1.0][0.16274120829576189 1.26961226330027 1.0]] cplot
[[0.11600915127504044 0.9932481446347861 1.0][0.14849171363205174 1.2713576251325258 1.0]] cplot
[[0.1049723756906077 0.9944751381215469 1.0][0.13436464088397782 1.2729281767955798 1.0]] cplot
[[0.09403205513921555 0.9955691701766862 1.0][0.12036103057819589 1.274328537826158 1.0]] cplot
[[0.08318890814558057 0.9965337954939341 1.0][0.10648180242634307 1.2755632582322354 1.0]] cplot
[[0.07244356265751507 0.997372513271489 1.0][0.09272776020161926 1.2766368169875055 1.0]] cplot
[[0.06179655977914623 0.9980887661923975 1.0][0.07909959651730715 1.2775536207262685 1.0]] cplot
[[0.051248357424441476 0.9986859395532194 1.0][0.06559789750328505 1.2783180026281205 1.0]] cplot
[[0.040799333888426326 0.9991673605328892 1.0][0.05222314737718568 1.278934221482098 1.0]] cplot
[[0.030449791333917276 0.9995362975938997 1.0][0.0389757329074141 1.2794064609201912 1.0]] cplot
[[0.020199959192001675 0.9997959600081616 1.0][0.02585594776576214 1.2797388288104465 1.0]] cplot
[[0.010049997474875021 0.9999494975001263 1.0][0.012863996767840034 1.2799353568001615 1.0]] cplot
[[0.0 1.0 1.0][0.0 1.2799999999999998 1.0]] cplot
0.0 0.0 0.5 0.5 viewport
-1.3 -0.1 1.3 2.5 window
0.0 0.0 0.0 setrgbcolor
[[-1.0 0.0 1.0][2.0 0.0 1.0]] cplot
[[-0.9855 0.28500000000000003 1.0][1.4579999999999997 0.02707500000000007 1.0]] cplot
[[-0.944 0.54 1.0][1.0239999999999998 0.09720000000000012 1.0]] cplot
[[-0.8785 0.7650000000000001 1.0][0.6860000000000003 0.195075 1.0]] cplot
[[-0.7919999999999999 0.9600000000000001 1.0][0.43200000000000005 0.30720000000000003 1.0]] cplot
[[-0.6875 1.125 1.0][0.25 0.421875 1.0]] cplot
[[-0.5679999999999998 1.26 1.0][0.128 0.5292 1.0]] cplot
[[-0.4364999999999999 1.365 1.0][0.053999999999999826 0.6210750000000004 1.0]] cplot
[[-0.29599999999999993 1.44 1.0][0.016000000000000125 0.6911999999999998 1.0]] cplot
[[-0.14949999999999997 1.485 1.0][0.0019999999999999463 0.7350749999999997 1.0]] cplot
[[0.0 1.5 1.0][0.0 0.75 1.0]] cplot
[[0.14950000000000008 1.485 1.0][-0.0020000000000000295 0.7350750000000003 1.0]] cplot
[[0.29600000000000026 1.44 1.0][-0.016000000000000014 0.6911999999999998 1.0]] cplot
[[0.4365 1.3649999999999998 1.0][-0.05400000000000016 0.6210749999999998 1.0]] cplot
[[0.5680000000000002 1.2599999999999998 1.0][-0.12800000000000022 0.5291999999999998 1.0]] cplot
[[0.6875 1.125 1.0][-0.25 0.421875 1.0]] cplot
[[0.7920000000000001 0.9599999999999997 1.0][-0.43200000000000005 0.3071999999999999 1.0]] cplot
[[0.8785000000000002 0.7649999999999997 1.0][-0.6860000000000005 0.19507499999999978 1.0]] cplot
[[0.944 0.5399999999999998 1.0][-1.024 0.09720000000000006 1.0]] cplot
[[0.9855 0.2849999999999997 1.0][-1.458000000000001 0.02707499999999985 1.0]] cplot
[[1.0 0.0 1.0][-2.0 0.0 1.0]] cplot
0.0 1.5 mv /Times-Roman findfont 9 scalefont setfont (1.33333333333) show
1.0 0.0 mv /Times-Roman findfont 9 scalefont setfont (0.333333333333) show
1.0 0.0 mv /Times-Roman findfont 9 scalefont setfont (0.333333333333) show
1.0 0.0 0.0 setrgbcolor
[[-1.0 0.0 1.0][-1.0 2.0 1.0][1.0 2.0 1.0][1.0 0.0 1.0]] cplot
0.0 0.0 1.0 setrgbcolor
[[-1.0 0.0 1.0][-1.13 0.0 1.0]] cplot
[[-0.9994040000000001 0.0594 1.0][-1.1346814267374874 0.06213315617285945 1.0]] cplot
[[-0.997632 0.1176 1.0][-1.1383389671389876 0.12334553449150866 1.0]] cplot
[[-0.9947079999999999 0.17459999999999998 1.0][-1.1409914342521226 0.18365712326965267 1.0]] cplot
[[-0.990656 0.2304 1.0][-1.1426560714940013 0.24308870162036877 1.0]] cplot
[[-0.9855 0.28500000000000003 1.0][-1.1433483782006668 0.3016617732545149 1.0]] cplot
[[-0.979264 0.3384 1.0][-1.1430819266574288 0.35939847968972494 1.0]] cplot
[[-0.971972 0.3906 1.0][-1.1418681719410908 0.41632149021712794 1.0]] cplot
[[-0.963648 0.44160000000000005 1.0][-1.1397162563494143 0.47245386587456406 1.0]] cplot
[[-0.954316 0.4914 1.0][-1.1366328106992736 0.5278188946250499 1.0]] cplot
[[-0.944 0.54 1.0][-1.132621755343074 0.5824398949521916 1.0]] cplot
[[-0.932724 0.5874 1.0][-1.1276841043810313 0.6363399851766743 1.0]] cplot
[[-0.920512 0.6335999999999999 1.0][-1.1218177772296885 0.6895418159880397 1.0]] cplot
[[-0.907388 0.6786000000000001 1.0][-1.1150174224357996 0.7420672639932134 1.0]] cplot
[[-0.893376 0.7224 1.0][-1.1072742593860876 0.7939370845280138 1.0]] cplot
[[-0.8785 0.7649999999999999 1.0][-1.098575944338924 0.845170522580608 1.0]] cplot
[[-0.862784 0.8064 1.0][-1.0889064679692517 0.8957848814560807 1.0]] cplot
[[-0.8462519999999999 0.8466 1.0][-1.0782460923421888 0.9457950497863117 1.0]] cplot
[[-0.828928 0.8855999999999999 1.0][-1.0665713358759317 0.9952129886727734 1.0]] cplot
[[-0.810836 0.9234 1.0][-1.0538550153760375 1.0440471821495878 1.0]] cplot
[[-0.7919999999999999 0.9600000000000001 1.0][-1.0400663545695092 1.092302055770405 1.0]] cplot
[[-0.7724440000000001 0.9954000000000001 1.0][-1.0251711686810028 1.1399773699454427 1.0]] cplot
[[-0.752192 1.0296 1.0][-1.009132134413297 1.1870675966618636 1.0]] cplot
[[-0.731268 1.0626 1.0][-0.9919091541560712 1.2335612903742228 1.0]] cplot
[[-0.709696 1.0944 1.0][-0.9734598222880833 1.279440466097486 1.0]] cplot
[[-0.6875 1.125 1.0][-0.95374 1.32468 1.0]] cplot
[[-0.664704 1.1544 1.0][-0.93270450309989 1.3692470699850787 1.0]] cplot
[[-0.641332 1.1826 1.0][-0.9103079047375625 1.4131006557555374 1.0]] cplot
[[-0.617408 1.2096 1.0][-0.886505451885502 1.4561911195459873 1.0]] cplot
[[-0.592956 1.2353999999999998 1.0][-0.8612540907587751 1.4984598899391988 1.0]] cplot
[[-0.5680000000000001 1.26 1.0][-0.834513592193202 1.539839271802862 1.0]] cplot
[[-0.542564 1.2833999999999999 1.0][-0.8062477634184182 1.5802524052378928 1.0]] cplot
[[-0.516672 1.3055999999999999 1.0][-0.7764257277908415 1.6196133953738172 1.0]] cplot
[[-0.49034799999999995 1.3266 1.0][-0.7450232490655911 1.657827632755307 1.0]] cplot
[[-0.4636159999999999 1.3464 1.0][-0.712024071903048 1.6947923208440248 1.0]] cplot
[[-0.4364999999999999 1.365 1.0][-0.677421245779052 1.7303972227648958 1.0]] cplot
[[-0.40902400000000005 1.3824 1.0][-0.6412183955795394 1.764525633868042 1.0]] cplot
[[-0.381212 1.3986 1.0][-0.603430899206679 1.797055580039053 1.0]] cplot
[[-0.353088 1.4136000000000002 1.0][-0.5640869307967862 1.8278612341310239 1.0]] cplot
[[-0.32467599999999996 1.4274 1.0][-0.5232283279184905 1.8568145346528082 1.0]] cplot
[[-0.29599999999999993 1.44 1.0][-0.4809112426035502 1.8837869822485207 1.0]] cplot
[[-0.26708399999999993 1.4514 1.0][-0.4372065394122873 1.9086515809314704 1.0]] cplot
[[-0.23795200000000005 1.4616 1.0][-0.3921999090087009 1.9312848829314941 1.0]] cplot
[[-0.20862800000000004 1.4706000000000001 1.0][-0.34599167286510807 1.9515690888462571 1.0]] cplot
[[-0.17913600000000002 1.4784 1.0][-0.298696263560401 1.9693941490213798 1.0]] cplot
[[-0.14949999999999997 1.485 1.0][-0.2504413753844748 1.9846598081531512 1.0]] cplot
[[-0.11974399999999996 1.4904 1.0][-0.20136679120338682 1.9972775333730324 1.0]] cplot
[[-0.08989199999999992 1.4946000000000002 1.0][-0.15162290326707928 2.0071722667943166 1.0]] cplot
[[-0.05996800000000008 1.4976 1.0][-0.10136895727614445 2.014283946806281 1.0]] cplot
[[-0.029996000000000023 1.4994 1.0][-0.050771059954695975 2.0185687482678527 1.0]] cplot
[[0.0 1.5 1.0][0.0 2.02 1.0]] cplot
[[0.029996000000000023 1.4994 1.0][0.050771059954695975 2.0185687482678527 1.0]] cplot
[[0.05996800000000002 1.4976 1.0][0.10136895727614442 2.014283946806281 1.0]] cplot
[[0.08989200000000008 1.4946 1.0][0.15162290326707967 2.0071722667943166 1.0]] cplot
[[0.11974400000000007 1.4904 1.0][0.20136679120338702 1.9972775333730326 1.0]] cplot
[[0.14950000000000008 1.485 1.0][0.2504413753844752 1.9846598081531517 1.0]] cplot
[[0.17913600000000007 1.4784 1.0][0.29869626356040113 1.96939414902138 1.0]] cplot
[[0.20862800000000015 1.4706 1.0][0.3459916728651084 1.9515690888462571 1.0]] cplot
[[0.23795199999999994 1.4616 1.0][0.39219990900870094 1.9312848829314946 1.0]] cplot
[[0.2670839999999999 1.4514 1.0][0.43720653941228727 1.9086515809314704 1.0]] cplot
[[0.29599999999999993 1.44 1.0][0.4809112426035502 1.8837869822485207 1.0]] cplot
[[0.32467599999999996 1.4274 1.0][0.5232283279184905 1.8568145346528082 1.0]] cplot
[[0.35308800000000007 1.4136 1.0][0.5640869307967863 1.8278612341310234 1.0]] cplot
[[0.381212 1.3986 1.0][0.6034308992066791 1.7970555800390533 1.0]] cplot
[[0.40902400000000005 1.3824 1.0][0.6412183955795394 1.764525633868042 1.0]] cplot
[[0.4365 1.3649999999999998 1.0][0.677421245779052 1.7303972227648954 1.0]] cplot
[[0.46361600000000003 1.3464 1.0][0.7120240719030481 1.6947923208440248 1.0]] cplot
[[0.4903480000000001 1.3266 1.0][0.7450232490655913 1.657827632755307 1.0]] cplot
[[0.5166720000000002 1.3055999999999999 1.0][0.7764257277908416 1.619613395373817 1.0]] cplot
[[0.5425640000000002 1.2833999999999999 1.0][0.8062477634184182 1.5802524052378923 1.0]] cplot
[[0.5680000000000002 1.2599999999999998 1.0][0.8345135921932021 1.5398392718028615 1.0]] cplot
[[0.5929559999999999 1.2354 1.0][0.8612540907587752 1.4984598899391992 1.0]] cplot
[[0.617408 1.2096 1.0][0.886505451885502 1.4561911195459873 1.0]] cplot
[[0.6413319999999999 1.1826 1.0][0.9103079047375624 1.4131006557555374 1.0]] cplot
[[0.664704 1.1544 1.0][0.93270450309989 1.3692470699850787 1.0]] cplot
[[0.6875 1.125 1.0][0.95374 1.32468 1.0]] cplot
[[0.709696 1.0944 1.0][0.9734598222880833 1.279440466097486 1.0]] cplot
[[0.731268 1.0626 1.0][0.9919091541560712 1.2335612903742228 1.0]] cplot
[[0.7521920000000001 1.0295999999999998 1.0][1.009132134413297 1.1870675966618633 1.0]] cplot
[[0.7724440000000001 0.9953999999999998 1.0][1.0251711686810028 1.1399773699454423 1.0]] cplot
[[0.7920000000000001 0.9599999999999997 1.0][1.0400663545695097 1.0923020557704048 1.0]] cplot
[[0.8108360000000001 0.9233999999999998 1.0][1.0538550153760378 1.0440471821495874 1.0]] cplot
[[0.8289280000000001 0.8855999999999997 1.0][1.066571335875932 0.9952129886727732 1.0]] cplot
[[0.8462520000000001 0.8465999999999998 1.0][1.078246092342189 0.9457950497863115 1.0]] cplot
[[0.862784 0.8064000000000002 1.0][1.088906467969252 0.895784881456081 1.0]] cplot
[[0.8785 0.7650000000000001 1.0][1.0985759443389242 0.8451705225806083 1.0]] cplot
[[0.893376 0.7224000000000002 1.0][1.1072742593860876 0.7939370845280139 1.0]] cplot
[[0.907388 0.6785999999999999 1.0][1.1150174224357994 0.7420672639932131 1.0]] cplot
[[0.920512 0.6335999999999999 1.0][1.1218177772296885 0.6895418159880397 1.0]] cplot
[[0.932724 0.5873999999999999 1.0][1.1276841043810315 0.6363399851766742 1.0]] cplot
[[0.944 0.5399999999999998 1.0][1.132621755343074 0.5824398949521914 1.0]] cplot
[[0.954316 0.49139999999999984 1.0][1.1366328106992734 0.5278188946250498 1.0]] cplot
[[0.9636480000000001 0.44159999999999977 1.0][1.1397162563494143 0.4724538658745638 1.0]] cplot
[[0.9719720000000001 0.3905999999999996 1.0][1.1418681719410908 0.4163214902171275 1.0]] cplot
[[0.979264 0.3383999999999996 1.0][1.1430819266574288 0.3593984796897245 1.0]] cplot
[[0.9855 0.2849999999999997 1.0][1.1433483782006668 0.3016617732545145 1.0]] cplot
[[0.990656 0.23040000000000016 1.0][1.1426560714940013 0.24308870162036897 1.0]] cplot
[[0.9947079999999999 0.1746000000000001 1.0][1.1409914342521226 0.18365712326965278 1.0]] cplot
[[0.997632 0.11760000000000015 1.0][1.1383389671389876 0.12334553449150883 1.0]] cplot
[[0.9994040000000001 0.05940000000000012 1.0][1.1346814267374874 0.06213315617285957 1.0]] cplot
[[1.0 0.0 1.0][1.13 0.0 1.0]] cplot
0.5 0.0 1.0 0.5 viewport
-1.2 -1.2 1.2 1.2 window
0.0 0.0 0.0 setrgbcolor
[[-1.0 0.0 1.0][0.0 0.0 1.0]] cplot
[[-0.9944751381215469 0.10497237569060776 1.0][1.1102230246251565e-16 1.6653345369377348e-16 1.0]] cplot
[[-0.975609756097561 0.21951219512195128 1.0][1.1102230246251565e-16 1.3877787807814457e-16 1.0]] cplot
[[-0.9395973154362415 0.3422818791946309 1.0][-4.440892098500626e-16 2.220446049250313e-16 1.0]] cplot
[[-0.8823529411764707 0.4705882352941177 1.0][2.220446049250313e-16 -2.7755575615628914e-16 1.0]] cplot
[[-0.8 0.6 1.0][2.220446049250313e-16 -1.1102230246251565e-16 1.0]] cplot
[[-0.6896551724137929 0.7241379310344828 1.0][1.1102230246251565e-16 -2.220446049250313e-16 1.0]] cplot
[[-0.5504587155963302 0.834862385321101 1.0][-1.1102230246251565e-16 -2.220446049250313e-16 1.0]] cplot
[[-0.38461538461538464 0.923076923076923 1.0][-5.551115123125783e-17 1.1102230246251565e-16 1.0]] cplot
[[-0.19801980198019814 0.9801980198019803 1.0][-1.1102230246251565e-16 -7.771561172376096e-16 1.0]] cplot
[[0.0 1.0 1.0][0.0 0.0 1.0]] cplot
[[0.1980198019801982 0.9801980198019803 1.0][8.326672684688674e-17 3.3306690738754696e-16 1.0]] cplot
[[0.38461538461538497 0.923076923076923 1.0][1.6653345369377348e-16 0.0 1.0]] cplot
[[0.5504587155963303 0.8348623853211009 1.0][1.1102230246251565e-16 -2.220446049250313e-16 1.0]] cplot
[[0.6896551724137933 0.7241379310344825 1.0][-1.1102230246251565e-16 -1.1102230246251565e-16 1.0]] cplot
[[0.8 0.6 1.0][-2.220446049250313e-16 -1.1102230246251565e-16 1.0]] cplot
[[0.8823529411764707 0.47058823529411753 1.0][0.0 -1.1102230246251565e-16 1.0]] cplot
[[0.9395973154362417 0.34228187919463066 1.0][3.3306690738754696e-16 5.551115123125783e-17 1.0]] cplot
[[0.9756097560975607 0.21951219512195114 1.0][-1.1102230246251565e-16 1.6653345369377348e-16 1.0]] cplot
[[0.9944751381215468 0.10497237569060759 1.0][-4.440892098500626e-16 1.6653345369377348e-16 1.0]] cplot
[[1.0 0.0 1.0][0.0 0.0 1.0]] cplot
0.0 1.0 mv /Times-Roman findfont 9 scalefont setfont (1.0) show
1.0 0.0 mv /Times-Roman findfont 9 scalefont setfont (1.0) show
1.0 0.0 mv /Times-Roman findfont 9 scalefont setfont (1.0) show
1.0 0.0 0.0 setrgbcolor
[[-3.0 0.0 3.0][-1.0 2.0 1.0][1.0 2.0 1.0][3.0 0.0 3.0]] cplot
0.0 0.0 1.0 1.0 viewport
0.0 0.0 1.0 1.0 window
0.0 0.0 0.0 setrgbcolor
0.52 0.02 mv /Times-Roman findfont 9.0 scalefont setfont (Steven Schmidt, Project 2, CS557, Sep. 24, 2016) show
